{
  "sharedOrder": false,
  "order_id":"${orderID}" ,
  "delivery_address": {
    "id": "46325843",
    "name": "Syeda Arshi",
    "address_line1": "Veeranna Garden Main Road, Cleveland Town, Pulikeshi Nagar, Bengaluru, Karnataka 560005, India",
    "address": "Veeranna Garden Main Road, Cleveland Town, Pulikeshi Nagar, Bengaluru, Karnataka 560005, India",
    "landmark": "Dr. Ibrahims Clinic",
    "area": "Pulikeshi Nagar",
    "mobile": "9148897207",
    "annotation": "Home",
    "email": "arshi.syeda123@gmail.com",
    "flat_no": "#63, Veeranna Garden, moore Road, frazer Town.",
    "city": "Bengaluru",
    "lat": "12.997654",
    "lng": "77.612457",
    "reverse_geo_code_failed": false
  },
  "order_items": [{
    "added_by_user_id": -1,
    "added_by_username": "",
    "group_user_item_map": {},
    "item_id": "4275953",
    "external_item_id": "",
    "name": "Chicken shawarma spicy",
    "is_veg": "0",
    "variants": [],
    "addons": [],
    "image_id": "",
    "quantity": "1",
    "total": "67",
    "subtotal": "67",
    "packing_charges": "0",
    "category_details": {
      "category": "Special Shawarma offer",
      "sub_category": "nota"
    },
    "global_main_category": "",
    "global_sub_category": "",
    "item_charges": {
      "Vat": "0",
      "Service Charges": "0",
      "Service Tax": "0",
      "GST": "0"
    },
    "item_tax_expressions": {
      "Vat": "0",
      "Service Charges": "0",
      "Service Tax": "0",
      "SGST": "[SUBTOTAL]*0.0",
      "IGST": "[SUBTOTAL]*0.0",
      "CGST": "[SUBTOTAL]*0.0",
      "GST_inclusive": false
    },
    "item_swiggy_discount_hit": 0,
    "item_restaurant_discount_hit": 0,
    "GST_details": {
      "SGST": 0,
      "CGST": 0,
      "IGST": 0
    },
    "meal_quantity": "1",
    "single_variant": false
  }],
  "order_meals": [],
  "order_subscriptions": [],
  "charges": {
    "Vat": "0",
    "Service Charges": "0",
    "Service Tax": "0",
    "Delivery Charges": "35",
    "Packing Charges": "0",
    "Convenience Fee": "0",
    "Cancellation Fee": "0",
    "GST": "3.35"
  },
  "free_gifts": [],
  "is_coupon_applied": true,
  "coupon_applied": "",
  "order_time":"${order_time}",
  "customer_id": "24248207",
  "order_status": "processing",
  "post_status": "completed",
  "order_type": "regular",
  "post_type": "",
  "post_name": "",
  "order_placement_status": "1",
  "billing_address_id": "46325843",
  "sla_time": "30",
  "delivery_boy": {
    "trackable": 0,
    "id": "289661",
    "name": "Nafees Ahmed",
    "mobile": "9738708406",
    "image_url": null
  },
  "restaurant_id": "${restaurant_id}",
  "restaurant_name": "Hotel Empire",
  "restaurant_address": "34, Mosque Road, Frazer Town",
  "restaurant_locality": "Mosque Road",
  "restaurant_type": "F",
  "restaurant_coverage_area": "frazer-town",
  "restaurant_city_code": "1",
  "restaurant_city_name": "Bangalore",
  "restaurant_area_code": "7",
  "restaurant_cuisine": [
    "North Indian",
    "Chinese",
    "South Indian",
    "Biryani"
  ],
  "payment_method": "Cash",
  "order_delivery_status": "processing",
  "ordered_time_in_seconds": "${ordered_time_in_seconds}",
  "delivered_time_in_seconds": "1544020261",
  "delivery_time_in_seconds": "1690",
  "order_total": 105,
  "item_total": 67,
  "subscription_total": 0,
  "subscription_tax": 0,
  "subscription_total_without_tax": 0,
  "original_order_total": 105,
  "swiggy_money": 0,
  "order_tax": 3.35,
  "free_shipping": "0",
  "order_discount_without_freebie": 0,
  "order_discount": 0,
  "coupon_discount": 0,
  "trade_discount": 0,
  "free_delivery_discount_hit": 0,
  "freebie_discount_hit": 0,
  "has_rating": "0",
  "order_spending": "0",
  "nodal_spending": "57.19",
  "service_tax_on_commission": "0",
  "commission": "10.55",
  "pg_charge": "0",
  "order_incoming": "105",
  "waive_off_amount": 0,
  "edit_refund_amount": 0,
  "order_restaurant_bill": "70",
  "restaurant_lat_lng": "12.999865571089007,77.61588558895494",
  "restaurant_customer_distance": "0.8",
  "customer_care_number": "08067466792",
  "pg_response_time": "${order_time}",
  "converted_to_cod": false,
  "last_failed_order_id": 0,
  "order_delivery_charge": 35,
  "convenience_fee": "0",
  "delivery_charge_actual": "29.66",
  "convenience_fee_actual": "0",
  "cancellation_fee_actual": "0",
  "customer_user_agent": "Swiggy-Android",
  "overbooking": "0",
  "swiggy_discount_hit": 0,
  "restaurant_discount_hit": 0,
  "payment_confirmation_channel": "api",
  "billing_lat": "12.997654",
  "billing_lng": "77.612457",
  "payment_txn_id": "",
  "coupon_code": "",
  "with_de": false,
  "restaurant_new_slug": "hotel-empire-mosque-road-frazer-town",
  "distance_calc_method": "GDMA_CACHE_LUCIFER",
  "is_partner_enable": true,
  "partner_id": "30530",
  "type_of_partner": 3,
  "prep_time": "29",
  "restaurant_has_inventory": "0",
  "order_payment_method": "Cash",
  "pay_by_system_value": true,
  "de_pickedup_refund": 0,
  "agreement_type": "${agreement_type}",
  "is_ivr_enabled": "0",
  "customer_ip": "49.205.219.216, 127.0.0.1, 172.31.25.225",
  "is_refund_initiated": 0,
  "restaurant_email": "",
  "restaurant_cover_image": "yden1irlpieq1yhkjv27",
  "restaurant_area_name": "Frazer Town",
  "restaurant_phone_numbers": "08040414141",
  "restaurant_payment_mode": {
    "agreement_type": "${agreement_type}",
    "agreement_type_string": "${agreement_type_string}"
  },
  "cust_lat_lng": {
    "lat": "12.997654",
    "lng": "77.612457"
  },
  "key": "U5NF2G",
  "is_assured": 0,
  "delayed_placing": 0,
  "app_version_code": "320",
  "invoice_number": "2018-12/C/18828169",
  "uuid": "e5dcb4ad-9f7d-442c-9a45-17e7573b0338",
  "cart_id": 1411279922,
  "cod_verification_threshold": 1000,
  "on_time": false,
  "sla_difference": "2",
  "actual_sla_time": "28",
  "payment_txn_status": "success",
  "restaurant_mobile": "",
  "restaurant_taxation_type": "GST",
  "sla": "30",
  "sla_min": "30",
  "sla_max": "40",
  "rain_mode": "0",
  "prep_time_pred": "19.789999",
  "first_mile_time_pred": "3.09",
  "last_mile_time_pred": "8.7249",
  "placement_delay_pred": "1.89",
  "assignement_delay_pred": "2.54",
  "banner_factor": "0.94",
  "start_banner_factor": "1.4",
  "stop_banner_factor": "1.6",
  "banner_factor_diff": "null",
  "restaurant_commission_exp":"${bill}",
  "payment": "successful",
  "device_id": "acfe16c9051bcf1d",
  "swuid": "acfe16c9051bcf1d",
  "sid": "d172b18e-e8d3-4e80-ab27-0608d7a2b0cf",
  "is_replicated": false,
  "is_cancellable": false,
  "cancellation_fee_collected": 0,
  "cancellation_fee_applied": 0,
  "cancellation_fee_collected_total": 0,
  "cancellation_order_summary_link": "/invoice/download?token=27093770237_e5dcb4ad-9f7d-442c-9a45-17e7573b0338",
  "tax_expressions": {
    "Vat": "[CART_SUBTOTAL]*0",
    "Service Charges": "[CART_SUBTOTAL]*0",
    "Service Tax": "[CART_SUBTOTAL]*0",
    "SGST": "[CART_SUBTOTAL_WITHOUT_PACKING]*0.025",
    "IGST": "[CART_SUBTOTAL_WITHOUT_PACKING]*0.0",
    "CGST": "[CART_SUBTOTAL_WITHOUT_PACKING]*0.025",
    "packaging_SGST": "[TOTAL_PACKING_CHARGES]*0.0",
    "packaging_IGST": "[TOTAL_PACKING_CHARGES]*0.0",
    "packaging_CGST": "[TOTAL_PACKING_CHARGES]*0.0",
    "service_charge_SGST": "[SERVICE_CHARGE]*0.0",
    "service_charge_IGST": "[SERVICE_CHARGE]*0.0",
    "service_charge_CGST": "[SERVICE_CHARGE]*0.0",
    "item_GST_inclusive": false,
    "packaging_GST_inclusive": false,
    "service_charge_GST_inclusive": false
  },
  "commission_on_full_bill": true,
  "is_assured_restaurant": false,
  "is_select": false,
  "is_first_order_delivered": true,
  "first_order": false,
  "rendering_details": [{
    "type": "display",
    "key": "item_total",
    "intermediateText": "",
    "value": "67.00",
    "hierarchy": 1,
    "currency": "rupees",
    "display_text": "Item Total",
    "info_text": "",
    "icon": ""
  },
    {
      "type": "display",
      "key": "gst",
      "intermediateText": "",
      "value": "3.35",
      "hierarchy": 1,
      "currency": "rupees",
      "display_text": "GST",
      "info_text": "",
      "icon": ""
    },
    {
      "type": "display",
      "key": "delivery_charges",
      "intermediateText": "",
      "value": "35.00",
      "hierarchy": 1,
      "currency": "rupees",
      "display_text": "Delivery Charges",
      "info_text": "",
      "icon": ""
    }
  ],
  "mCancellationTime": 0,
  "configurations": {},
  "trade_discount_meta": [],
  "trade_discount_reward_list": [],
  "trade_discount_breakup": [],
  "GST_details": {
    "item_SGST": 1.675,
    "item_CGST": 1.675,
    "item_IGST": 0,
    "packaging_SGST": 0,
    "packaging_IGST": 0,
    "packaging_CGST": 0,
    "service_charge_SGST": 0,
    "service_charge_IGST": 0,
    "service_charge_CGST": 0,
    "external_GST": 0,
    "cart_SGST": 1.675,
    "cart_CGST": 1.675,
    "cart_IGST": 0
  },
  "device_lat": "0.0",
  "device_lng": "0.0",
  "defaulting_type": "gps-saved-address",
  "defaulting_lat": "12.997654",
  "defaulting_lng": "77.612457",
  "GST_on_commission": {
    "CGST": 0.9497250171393148,
    "SGST": 0.9497250171393148,
    "GST": 1.9
  },
  "GST_on_commission_expressions": {
    "CGST": "0.09",
    "IGST": "0",
    "SGST": "0.09"
  },
  "TCS_on_bill": {
    "CTCS": 0.35174998450838046,
    "STCS": 0.35174998450838046
  },
  "TCS_on_bill_expressions": {
    "CTCS": "0.005",
    "ITCS": "0",
    "STCS": "0.005"
  },
  "GST_on_delivery_fee": {
    "CGST": 2.6694915294647217,
    "SGST": 2.6694915294647217,
    "GST": 5.34
  },
  "GST_on_convenience_fee": {},
  "GST_on_cancellation_fee": {},
  "GST_on_subscription": {},
  "cancellation_fee_gst_expression": "18",
  "convenience_fee_gst_expression": "18",
  "delivery_charge_gst_expression": "18",
  "subscription_gst_expression": "18",
  "success_message": "Your order will be delivered shortly. Keep Swiggying!",
  "success_message_info": "",
  "success_title": "Yay! Order Received",
  "success_message_type": "SUPER",
  "threshold_fee": 35,
  "distance_fee": 0,
  "time_fee": 0,
  "special_fee": 0,
  "initiation_source": 0,
  "order_tags": ["SUPER"]
}