{
  "sharedOrder": false,
  "order_id":"${orderID}",
  "delivery_address": {
    "id": "15797435",
    "name": "Siddharth Ahuja",
    "address_line1": "Richmond Building, Convent Rd, Shanthala Nagar, Ashok Nagar, Bengaluru, Karnataka 560025, India",
    "address": "Richmond Building, Convent Rd, Shanthala Nagar, Ashok Nagar, Bengaluru, Karnataka 560025, India",
    "landmark": "Richmond Road",
    "area": "Ashok Nagar",
    "mobile": "7259632623",
    "annotation": "work",
    "email": "ahujasid@gmail.com",
    "flat_no": "smallcase, 1st floor, Le Parc Richmonde",
    "city": "bangalore",
    "lat": "12.965993",
    "lng": "77.603624",
    "reverse_geo_code_failed": false
  },
  "order_items": [{
    "added_by_user_id": -1,
    "added_by_username": "",
    "group_user_item_map": {},
    "item_id": "9831952",
    "external_item_id": "FARMFRESHFRUITBOWL",
    "name": "Farm Fresh Fruit Bowl",
    "is_veg": "1",
    "variants": [],
    "addons": [],
    "image_id": "b67q3b8wxmjyyx0ak43x",
    "quantity": "1",
    "total": "93.75",
    "subtotal": "89",
    "packing_charges": "4.75",
    "category_details": {
      "category": "Breakfast",
      "sub_category": "nota"
    },
    "global_main_category": "",
    "global_sub_category": "",
    "item_charges": {
      "Vat": "0",
      "Service Charges": "0",
      "Service Tax": "0",
      "GST": "4.45"
    },
    "item_tax_expressions": {
      "Vat": "0.0",
      "Service Charges": "0",
      "Service Tax": "0.0",
      "SGST": "[SUBTOTAL]*0.025",
      "IGST": "[SUBTOTAL]*0.0",
      "CGST": "[SUBTOTAL]*0.025",
      "GST_inclusive": false
    },
    "item_swiggy_discount_hit": 0,
    "item_restaurant_discount_hit": 0,
    "GST_details": {
      "SGST": 2.225,
      "CGST": 2.225,
      "IGST": 0
    },
    "meal_quantity": "1",
    "single_variant": false
  }],
  "order_meals": [],
  "order_subscriptions": [],
  "charges": {
    "Vat": "0",
    "Service Charges": "0",
    "Service Tax": "0",
    "Delivery Charges": "35",
    "Packing Charges": "4.75",
    "Convenience Fee": "0",
    "Cancellation Fee": "0",
    "GST": "4.69"
  },
  "free_gifts": [],
  "is_coupon_applied": false,
  "coupon_applied": "",
  "order_time": "${order_time}",
  "customer_id": "3316386",
  "order_status": "processing",
  "post_status": "completed",
  "order_type": "regular",
  "post_type": "",
  "post_name": "",
  "order_placement_status": "1",
  "billing_address_id": "15797435",
  "sla_time": "38",
  "delivery_boy": {
    "trackable": 0,
    "id": "146878",
    "name": "Tanka Sharma",
    "mobile": "9008628963",
    "image_url": null
  },
  "restaurant_id":"${restaurant_id}",
  "restaurant_name": "The Bowl Company",
  "restaurant_address": "4th Floor, N 60,GNR Enclave, Appareddy Palya,Indiranagar Double Road,Bangalore 560038",
  "restaurant_locality": "Appareddy Palya",
  "restaurant_type": "F",
  "restaurant_coverage_area": "indiranagar",
  "restaurant_city_code": "1",
  "restaurant_city_name": "Bangalore",
  "restaurant_area_code": "2",
  "restaurant_cuisine": [
    "Continental",
    "Indian",
    "Pan-Asian"
  ],
  "payment_method": "Credit/Debit card",
  "order_delivery_status": "delivered",
  "ordered_time_in_seconds":"${ordered_time_in_seconds}",
  "delivered_time_in_seconds": "1543987709",
  "delivery_time_in_seconds": "2594",
  "order_total": 133,
  "item_total": 89,
  "subscription_total": 0,
  "subscription_tax": 0,
  "subscription_total_without_tax": 0,
  "original_order_total": 133,
  "swiggy_money": 0,
  "order_tax": 4.6875,
  "free_shipping": "0",
  "order_discount_without_freebie": 0,
  "order_discount": 0,
  "coupon_discount": 0,
  "trade_discount": 0,
  "free_delivery_discount_hit": 0,
  "freebie_discount_hit": 0,
  "has_rating": "0",
  "order_spending": "0",
  "nodal_spending": "74.22",
  "service_tax_on_commission": "0",
  "commission": "19.69",
  "pg_charge": "0",
  "order_incoming": "0",
  "waive_off_amount": 0,
  "edit_refund_amount": 0,
  "order_restaurant_bill": "98",
  "restaurant_lat_lng": "12.974171,77.63602200000003",
  "restaurant_customer_distance": "5.8",
  "pg_response": "",
  "customer_care_number": "08067466792",
  "pg_response_time": "${order_time}",
  "converted_to_cod": false,
  "last_failed_order_id": 0,
  "order_delivery_charge": 35,
  "convenience_fee": "0",
  "delivery_charge_actual": "29.66",
  "convenience_fee_actual": "0",
  "cancellation_fee_actual": "0",
  "customer_user_agent": "Mozilla/5.0 (Macintosh; Intel Mac OS X 10_13_4) AppleWebKit/537.36 (KHTML, like Gecko) Chrome/70.0.3538.110 Safari/537.36",
  "overbooking": "0",
  "swiggy_discount_hit": 0,
  "restaurant_discount_hit": 0,
  "payment_confirmation_channel": "api",
  "billing_lat": "12.965993",
  "billing_lng": "77.603624",
  "payment_txn_id": "com.swiggy-27060314634-1",
  "coupon_code": "",
  "with_de": false,
  "restaurant_new_slug": "the-bowl-company-appareddy-palya-indiranagar",
  "distance_calc_method": "GDMA_CACHE_LUCIFER",
  "is_partner_enable": true,
  "partner_id": "6218",
  "type_of_partner": 14,
  "prep_time": "25",
  "restaurant_has_inventory": "0",
  "order_payment_method": "Juspay",
  "pay_by_system_value": true,
  "de_pickedup_refund": 0,
  "agreement_type": "${agreement_type}",
  "is_ivr_enabled": "0",
  "customer_ip": "172.31.33.36, 127.0.0.1, 172.31.12.180",
  "is_refund_initiated": 0,
  "restaurant_email": "kitchen.indiranagar@swiggy.in",
  "restaurant_cover_image": "aurzdzygtqm9m8sjdddu",
  "restaurant_area_name": "Indiranagar",
  "restaurant_phone_numbers": "8722559399,8123340697,9663279551,9620113337",
  "restaurant_payment_mode": {
    "agreement_type": "${agreement_type}",
    "agreement_type_string": "${agreement_type_string}"
  },
  "cust_lat_lng": {
    "lat": "12.965993",
    "lng": "77.603624"
  },
  "key": "C5ZPEX",
  "is_assured": 0,
  "delayed_placing": 0,
  "app_version_code": "320",
  "invoice_number": "2018-12/C/18799794",
  "uuid": "3b018875-1cc5-4ecc-a6de-52aaf073c66f",
  "cart_id": 1407246822,
  "is_long_distance": true,
  "on_time": false,
  "sla_difference": "-4",
  "actual_sla_time": "42",
  "payment_txn_status": "success",
  "restaurant_mobile": "8722559399",
  "restaurant_taxation_type": "GST",
  "sla_min": "35",
  "sla_max": "45",
  "rain_mode": "0",
  "prep_time_pred": "10.897517",
  "first_mile_time_pred": "3.94",
  "last_mile_time_pred": "22.443739",
  "placement_delay_pred": "0.0",
  "assignement_delay_pred": "3.23",
  "restaurant_commission_exp": "${bill}",
  "payment": "successful",
  "payment_gateway": "CYBERSOURCE",
  "device_id": "ea05ff92-6560-4f4d-812d-d10780074995",
  "swuid": "ea05ff92-6560-4f4d-812d-d10780074995",
  "sid": "d0ycde45-2fb6-4516-af40-95be0c817ec1",
  "is_replicated": false,
  "is_cancellable": false,
  "cancellation_fee_collected": 0,
  "cancellation_fee_applied": 0,
  "cancellation_fee_collected_total": 0,
  "cancellation_order_summary_link": "/invoice/download?token=27060314634_3b018875-1cc5-4ecc-a6de-52aaf073c66f",
  "tax_expressions": {
    "Vat": "0.0",
    "Service Charges": "[CART_SUBTOTAL]*0",
    "Service Tax": "0.0",
    "SGST": "[CART_SUBTOTAL_WITHOUT_PACKING]*0.0",
    "IGST": "[CART_SUBTOTAL_WITHOUT_PACKING]*0.0",
    "CGST": "[CART_SUBTOTAL_WITHOUT_PACKING]*0.0",
    "packaging_SGST": "[TOTAL_PACKING_CHARGES]*0.025",
    "packaging_IGST": "[TOTAL_PACKING_CHARGES]*0.0",
    "packaging_CGST": "[TOTAL_PACKING_CHARGES]*0.025",
    "service_charge_SGST": "[SERVICE_CHARGE]*0.0",
    "service_charge_IGST": "[SERVICE_CHARGE]*0.0",
    "service_charge_CGST": "[SERVICE_CHARGE]*0.0",
    "item_GST_inclusive": false,
    "packaging_GST_inclusive": false,
    "service_charge_GST_inclusive": false
  },
  "commission_on_full_bill": true,
  "is_assured_restaurant": true,
  "is_select": true,
  "is_first_order_delivered": true,
  "first_order": false,
  "rendering_details": [{
    "type": "display",
    "key": "item_total",
    "intermediateText": "",
    "value": "89.00",
    "hierarchy": 1,
    "currency": "rupees",
    "display_text": "Item Total",
    "info_text": "",
    "icon": ""
  },
    {
      "type": "display",
      "key": "gst",
      "intermediateText": "",
      "value": "4.69",
      "hierarchy": 1,
      "currency": "rupees",
      "display_text": "GST",
      "info_text": "",
      "icon": ""
    },
    {
      "type": "display",
      "key": "order_packing_charges",
      "intermediateText": "",
      "value": "4.75",
      "hierarchy": 1,
      "currency": "rupees",
      "display_text": "Order Packing Charges",
      "info_text": "",
      "icon": ""
    },
    {
      "type": "display",
      "key": "delivery_charges",
      "intermediateText": "",
      "value": "35.00",
      "hierarchy": 1,
      "currency": "rupees",
      "display_text": "Delivery Charges",
      "info_text": "",
      "icon": ""
    }
  ],
  "mCancellationTime": 0,
  "configurations": {},
  "trade_discount_meta": [],
  "trade_discount_reward_list": [],
  "trade_discount_breakup": [],
  "GST_details": {
    "item_SGST": 2.225,
    "item_CGST": 2.225,
    "item_IGST": 0,
    "packaging_SGST": 0.11875,
    "packaging_IGST": 0,
    "packaging_CGST": 0.11875,
    "service_charge_SGST": 0,
    "service_charge_IGST": 0,
    "service_charge_CGST": 0,
    "external_GST": 0,
    "cart_SGST": 2.34375,
    "cart_CGST": 2.34375,
    "cart_IGST": 0
  },
  "GST_on_commission": {
    "CGST": 1.7718750704079866,
    "SGST": 1.7718750704079866,
    "GST": 3.54
  },
  "GST_on_commission_expressions": {
    "CGST": "0.09",
    "IGST": "0",
    "SGST": "0.09"
  },
  "TCS_on_bill": {
    "CTCS": 0.4921874889987521,
    "STCS": 0.4921874889987521
  },
  "TCS_on_bill_expressions": {
    "CTCS": "0.005",
    "ITCS": "0",
    "STCS": "0.005"
  },
  "GST_on_delivery_fee": {
    "CGST": 2.6694915294647217,
    "SGST": 2.6694915294647217,
    "GST": 5.34
  },
  "GST_on_convenience_fee": {},
  "GST_on_cancellation_fee": {},
  "GST_on_subscription": {},
  "cancellation_fee_gst_expression": "18",
  "convenience_fee_gst_expression": "18",
  "delivery_charge_gst_expression": "18",
  "subscription_gst_expression": "18",
  "success_message": "Your order will be delivered shortly. Keep Swiggying!",
  "success_message_info": "",
  "success_title": "Yay! Order Received",
  "success_message_type": "SUPER",
  "threshold_fee": 35,
  "distance_fee": 0,
  "time_fee": 0,
  "special_fee": 0,
  "initiation_source": 0,
  "order_tags": [
    "SUPER"
  ]
}