{
  "definitions": {},
  "$schema": "http://json-schema.org/draft-06/schema#",
  "$id": "http://example.com/root.json",
  "type": "object",
  "title": "The Root Schema",
  "required": [
    "statusCode",
    "statusMessage",
    "data",
    "tid",
    "sid",
    "deviceId",
    "successful"
  ],
  "properties": {
    "statusCode": {
      "$id": "#/properties/statusCode",
      "type": "number",
      "title": "The Statuscode Schema",
      "default": 0,
      "examples": [
        0
      ]
    },
    "statusMessage": {
      "$id": "#/properties/statusMessage",
      "type": "string",
      "title": "The Statusmessage Schema",
      "default": "",
      "examples": [
        "CART_UPDATED_SUCCESSFULLY"
      ],
      "pattern": "^(.*)$"
    },
    "data": {
      "$id": "#/properties/data",
      "type": "object",
      "title": "The Data Schema",
      "required": [
        "appliedTradeCampaignHeaders",
        "rainMode",
        "flatFeeApplied",
        "select",
        "superTradeDiscount",
        "cartId",
        "result",
        "email_id",
        "phone_no",
        "user_swiggy_money",
        "cart_menu_items",
        "mealItems",
        "subscription_items",
        "cart_subtotal_without_packing",
        "cart_subtotal",
        "taxes",
        "restaurant_packing_charges",
        "cart_total",
        "order_total",
        "total_without_coupon_discount",
        "total_packing_charges",
        "discount_total",
        "coupon_discount_total",
        "trade_discount_without_freebie",
        "trade_discount_total",
        "discount_total_without_freebie",
        "trade_discount_reward_list",
        "swiggy_money",
        "cart_total_count",
        "restaurant_details",
        "is_coupon_valid",
        "is_group_parent",
        "free_gifts",
        "free_shipping",
        "coupon_error_message",
        "is_sla_honored",
        "sla_time",
        "sla_range_min",
        "sla_range_max",
        "payment_banner_message",
        "cart_banner_message",
        "cod_enabled",
        "cod_disabled_message",
        "cart_popup_title",
        "cart_popup_msg",
        "delivery_fee_type",
        "cart_popup_version",
        "delivery_fee_info",
        "offers",
        "is_assured",
        "order_incoming",
        "waive_off_amount",
        "order_spending",
        "cancellation_fee",
        "total_tax",
        "cart_type",
        "configurations",
        "messages",
        "GST_details",
        "threshold_fee",
        "distance_fee",
        "time_fee",
        "special_fee",
        "convenience_fee",
        "convenience_fee_info",
        "delivery_charges",
        "threshold_fee_message",
        "distance_fee_message",
        "time_fee_message",
        "special_fee_message",
        "bill_total",
        "item_total",
        "subscription_total",
        "is_super_trade_discount",
        "free_delivery_discount",
        "cart_token"
      ],
      "properties": {
        "appliedTradeCampaignHeaders": {
          "$id": "#/properties/data/properties/appliedTradeCampaignHeaders",
          "type": "array",
          "title": "The Appliedtradecampaignheaders Schema"
        },
        "rainMode": {
          "$id": "#/properties/data/properties/rainMode",
          "type": "boolean",
          "title": "The Rainmode Schema",
          "default": false,
          "examples": [
            false
          ]
        },
        "flatFeeApplied": {
          "$id": "#/properties/data/properties/flatFeeApplied",
          "type": "boolean",
          "title": "The Flatfeeapplied Schema",
          "default": false,
          "examples": [
            false
          ]
        },
        "select": {
          "$id": "#/properties/data/properties/select",
          "type": "boolean",
          "title": "The Select Schema",
          "default": false,
          "examples": [
            false
          ]
        },
        "superTradeDiscount": {
          "$id": "#/properties/data/properties/superTradeDiscount",
          "type": "boolean",
          "title": "The Supertradediscount Schema",
          "default": false,
          "examples": [
            false
          ]
        },
        "cartId": {
          "$id": "#/properties/data/properties/cartId",
          "type": "number",
          "title": "The Cartid Schema",
          "default": 0,
          "examples": [
            0
          ]
        },
        "result": {
          "$id": "#/properties/data/properties/result",
          "type": "string",
          "title": "The Result Schema",
          "default": "",
          "examples": [
            "success"
          ],
          "pattern": "^(.*)$"
        },
        "email_id": {
          "$id": "#/properties/data/properties/email_id",
          "type": "string",
          "title": "The Email_id Schema",
          "default": "",
          "examples": [
            "toughlook1@gmail.com"
          ],
          "pattern": "^(.*)$"
        },
        "phone_no": {
          "$id": "#/properties/data/properties/phone_no",
          "type": "string",
          "title": "The Phone_no Schema",
          "default": "",
          "examples": [
            "7990012757"
          ],
          "pattern": "^(.*)$"
        },
        "user_swiggy_money": {
          "$id": "#/properties/data/properties/user_swiggy_money",
          "type": "number",
          "title": "The User_swiggy_money Schema",
          "default": 0,
          "examples": [
            0
          ]
        },
        "cart_menu_items": {
          "$id": "#/properties/data/properties/cart_menu_items",
          "type": "array",
          "title": "The Cart_menu_items Schema",
          "items": {
            "$id": "#/properties/data/properties/cart_menu_items/items",
            "type": "object",
            "title": "The Items Schema",
            "required": [
              "rewardType",
              "mealQuantity",
              "menu_item_id",
              "name",
              "base_price",
              "variants_price",
              "addons_price",
              "quantity",
              "subtotal",
              "subtotal_trade_discount",
              "packing_charge",
              "total",
              "final_price",
              "is_customized",
              "id_hash",
              "valid_addons",
              "valid_variants",
              "valid_variants_v2",
              "is_veg",
              "isVeg",
              "addons",
              "variants",
              "item_taxes",
              "GST_details",
              "cloudinaryImageId",
              "in_stock",
              "inventory",
              "inventory_message",
              "inventory_insufficient_message",
              "added_by_user_id",
              "added_by_user_name",
              "group_user_item_map",
              "is_gstInclusive",
              "attributes"
            ],
            "properties": {
              "rewardType": {
                "$id": "#/properties/data/properties/cart_menu_items/items/properties/rewardType",
                "type": "null",
                "title": "The Rewardtype Schema",
                "default": null,
                "examples": [
                  null
                ]
              },
              "mealQuantity": {
                "$id": "#/properties/data/properties/cart_menu_items/items/properties/mealQuantity",
                "type": "number",
                "title": "The Mealquantity Schema",
                "default": 0,
                "examples": [
                  1
                ]
              },
              "menu_item_id": {
                "$id": "#/properties/data/properties/cart_menu_items/items/properties/menu_item_id",
                "type": "number",
                "title": "The Menu_item_id Schema",
                "default": 0,
                "examples": [
                  17273791
                ]
              },
              "name": {
                "$id": "#/properties/data/properties/cart_menu_items/items/properties/name",
                "type": "string",
                "title": "The Name Schema",
                "default": "",
                "examples": [
                  "Grilled Chilli Cheese Toasty"
                ],
                "pattern": "^(.*)$"
              },
              "base_price": {
                "$id": "#/properties/data/properties/cart_menu_items/items/properties/base_price",
                "type": "number",
                "title": "The Base_price Schema",
                "default": 0,
                "examples": [
                  20
                ]
              },
              "variants_price": {
                "$id": "#/properties/data/properties/cart_menu_items/items/properties/variants_price",
                "type": "null",
                "title": "The Variants_price Schema",
                "default": null,
                "examples": [
                  null
                ]
              },
              "addons_price": {
                "$id": "#/properties/data/properties/cart_menu_items/items/properties/addons_price",
                "type": "null",
                "title": "The Addons_price Schema",
                "default": null,
                "examples": [
                  null
                ]
              },
              "quantity": {
                "$id": "#/properties/data/properties/cart_menu_items/items/properties/quantity",
                "type": "number",
                "title": "The Quantity Schema",
                "default": 0,
                "examples": [
                  2
                ]
              },
              "subtotal": {
                "$id": "#/properties/data/properties/cart_menu_items/items/properties/subtotal",
                "type": "number",
                "title": "The Subtotal Schema",
                "default": 0,
                "examples": [
                  40
                ]
              },
              "subtotal_trade_discount": {
                "$id": "#/properties/data/properties/cart_menu_items/items/properties/subtotal_trade_discount",
                "type": "number",
                "title": "The Subtotal_trade_discount Schema",
                "default": 0,
                "examples": [
                  0
                ]
              },
              "packing_charge": {
                "$id": "#/properties/data/properties/cart_menu_items/items/properties/packing_charge",
                "type": "number",
                "title": "The Packing_charge Schema",
                "default": 0,
                "examples": [
                  0
                ]
              },
              "total": {
                "$id": "#/properties/data/properties/cart_menu_items/items/properties/total",
                "type": "number",
                "title": "The Total Schema",
                "default": 0,
                "examples": [
                  40
                ]
              },
              "final_price": {
                "$id": "#/properties/data/properties/cart_menu_items/items/properties/final_price",
                "type": "number",
                "title": "The Final_price Schema",
                "default": 0,
                "examples": [
                  40
                ]
              },
              "is_customized": {
                "$id": "#/properties/data/properties/cart_menu_items/items/properties/is_customized",
                "type": "null",
                "title": "The Is_customized Schema",
                "default": null,
                "examples": [
                  null
                ]
              },
              "id_hash": {
                "$id": "#/properties/data/properties/cart_menu_items/items/properties/id_hash",
                "type": "string",
                "title": "The Id_hash Schema",
                "default": "",
                "examples": [
                  "54fbec74f4091a4c86ebcd4e87a7601c"
                ],
                "pattern": "^(.*)$"
              },
              "valid_addons": {
                "$id": "#/properties/data/properties/cart_menu_items/items/properties/valid_addons",
                "type": "array",
                "title": "The Valid_addons Schema"
              },
              "valid_variants": {
                "$id": "#/properties/data/properties/cart_menu_items/items/properties/valid_variants",
                "type": "object",
                "title": "The Valid_variants Schema",
                "required": [
                  "exclude_list",
                  "variant_groups"
                ],
                "properties": {
                  "exclude_list": {
                    "$id": "#/properties/data/properties/cart_menu_items/items/properties/valid_variants/properties/exclude_list",
                    "type": "array",
                    "title": "The Exclude_list Schema"
                  },
                  "variant_groups": {
                    "$id": "#/properties/data/properties/cart_menu_items/items/properties/valid_variants/properties/variant_groups",
                    "type": "array",
                    "title": "The Variant_groups Schema"
                  }
                }
              },
              "valid_variants_v2": {
                "$id": "#/properties/data/properties/cart_menu_items/items/properties/valid_variants_v2",
                "type": "null",
                "title": "The Valid_variants_v2 Schema",
                "default": null,
                "examples": [
                  null
                ]
              },
              "is_veg": {
                "$id": "#/properties/data/properties/cart_menu_items/items/properties/is_veg",
                "type": "string",
                "title": "The Is_veg Schema",
                "default": "",
                "examples": [
                  "1"
                ],
                "pattern": "^(.*)$"
              },
              "isVeg": {
                "$id": "#/properties/data/properties/cart_menu_items/items/properties/isVeg",
                "type": "number",
                "title": "The Isveg Schema",
                "default": 0,
                "examples": [
                  1
                ]
              },
              "addons": {
                "$id": "#/properties/data/properties/cart_menu_items/items/properties/addons",
                "type": "array",
                "title": "The Addons Schema"
              },
              "variants": {
                "$id": "#/properties/data/properties/cart_menu_items/items/properties/variants",
                "type": "array",
                "title": "The Variants Schema"
              },
              "item_taxes": {
                "$id": "#/properties/data/properties/cart_menu_items/items/properties/item_taxes",
                "type": "object",
                "title": "The Item_taxes Schema",
                "required": [
                  "service_tax",
                  "vat",
                  "service_charges",
                  "GST"
                ],
                "properties": {
                  "service_tax": {
                    "$id": "#/properties/data/properties/cart_menu_items/items/properties/item_taxes/properties/service_tax",
                    "type": "number",
                    "title": "The Service_tax Schema",
                    "default": 0,
                    "examples": [
                      0
                    ]
                  },
                  "vat": {
                    "$id": "#/properties/data/properties/cart_menu_items/items/properties/item_taxes/properties/vat",
                    "type": "number",
                    "title": "The Vat Schema",
                    "default": 0,
                    "examples": [
                      0
                    ]
                  },
                  "service_charges": {
                    "$id": "#/properties/data/properties/cart_menu_items/items/properties/item_taxes/properties/service_charges",
                    "type": "number",
                    "title": "The Service_charges Schema",
                    "default": 0,
                    "examples": [
                      0
                    ]
                  },
                  "GST": {
                    "$id": "#/properties/data/properties/cart_menu_items/items/properties/item_taxes/properties/GST",
                    "type": "number",
                    "title": "The Gst Schema",
                    "default": 0,
                    "examples": [
                      2
                    ]
                  }
                }
              },
              "GST_details": {
                "$id": "#/properties/data/properties/cart_menu_items/items/properties/GST_details",
                "type": "object",
                "title": "The Gst_details Schema",
                "required": [
                  "SGST",
                  "CGST",
                  "IGST"
                ],
                "properties": {
                  "SGST": {
                    "$id": "#/properties/data/properties/cart_menu_items/items/properties/GST_details/properties/SGST",
                    "type": "number",
                    "title": "The Sgst Schema",
                    "default": 0,
                    "examples": [
                      1
                    ]
                  },
                  "CGST": {
                    "$id": "#/properties/data/properties/cart_menu_items/items/properties/GST_details/properties/CGST",
                    "type": "number",
                    "title": "The Cgst Schema",
                    "default": 0,
                    "examples": [
                      1
                    ]
                  },
                  "IGST": {
                    "$id": "#/properties/data/properties/cart_menu_items/items/properties/GST_details/properties/IGST",
                    "type": "number",
                    "title": "The Igst Schema",
                    "default": 0,
                    "examples": [
                      0
                    ]
                  }
                }
              },
              "cloudinaryImageId": {
                "$id": "#/properties/data/properties/cart_menu_items/items/properties/cloudinaryImageId",
                "type": "string",
                "title": "The Cloudinaryimageid Schema",
                "default": "",
                "examples": [
                  "null"
                ],
                "pattern": "^(.*)$"
              },
              "in_stock": {
                "$id": "#/properties/data/properties/cart_menu_items/items/properties/in_stock",
                "type": "number",
                "title": "The In_stock Schema",
                "default": 0,
                "examples": [
                  1
                ]
              },
              "inventory": {
                "$id": "#/properties/data/properties/cart_menu_items/items/properties/inventory",
                "type": "number",
                "title": "The Inventory Schema",
                "default": 0,
                "examples": [
                  -1
                ]
              },
              "inventory_message": {
                "$id": "#/properties/data/properties/cart_menu_items/items/properties/inventory_message",
                "type": "null",
                "title": "The Inventory_message Schema",
                "default": null,
                "examples": [
                  null
                ]
              },
              "inventory_insufficient_message": {
                "$id": "#/properties/data/properties/cart_menu_items/items/properties/inventory_insufficient_message",
                "type": "null",
                "title": "The Inventory_insufficient_message Schema",
                "default": null,
                "examples": [
                  null
                ]
              },
              "added_by_user_id": {
                "$id": "#/properties/data/properties/cart_menu_items/items/properties/added_by_user_id",
                "type": "number",
                "title": "The Added_by_user_id Schema",
                "default": 0,
                "examples": [
                  -1
                ]
              },
              "added_by_user_name": {
                "$id": "#/properties/data/properties/cart_menu_items/items/properties/added_by_user_name",
                "type": "string",
                "title": "The Added_by_user_name Schema",
                "default": "",
                "examples": [
                  ""
                ],
                "pattern": "^(.*)$"
              },
              "group_user_item_map": {
                "$id": "#/properties/data/properties/cart_menu_items/items/properties/group_user_item_map",
                "type": "object",
                "title": "The Group_user_item_map Schema"
              },
              "is_gstInclusive": {
                "$id": "#/properties/data/properties/cart_menu_items/items/properties/is_gstInclusive",
                "type": "boolean",
                "title": "The Is_gstinclusive Schema",
                "default": false,
                "examples": [
                  false
                ]
              },
              "attributes": {
                "$id": "#/properties/data/properties/cart_menu_items/items/properties/attributes",
                "type": "null",
                "title": "The Attributes Schema",
                "default": null,
                "examples": [
                  null
                ]
              }
            }
          }
        },
        "mealItems": {
          "$id": "#/properties/data/properties/mealItems",
          "type": "array",
          "title": "The Mealitems Schema"
        },
        "subscription_items": {
          "$id": "#/properties/data/properties/subscription_items",
          "type": "array",
          "title": "The Subscription_items Schema"
        },
        "cart_subtotal_without_packing": {
          "$id": "#/properties/data/properties/cart_subtotal_without_packing",
          "type": "number",
          "title": "The Cart_subtotal_without_packing Schema",
          "default": 0,
          "examples": [
            40
          ]
        },
        "cart_subtotal": {
          "$id": "#/properties/data/properties/cart_subtotal",
          "type": "number",
          "title": "The Cart_subtotal Schema",
          "default": 0,
          "examples": [
            40
          ]
        },
        "taxes": {
          "$id": "#/properties/data/properties/taxes",
          "type": "object",
          "title": "The Taxes Schema",
          "required": [
            "service_tax",
            "vat",
            "service_charges",
            "GST"
          ],
          "properties": {
            "service_tax": {
              "$id": "#/properties/data/properties/taxes/properties/service_tax",
              "type": "number",
              "title": "The Service_tax Schema",
              "default": 0,
              "examples": [
                0
              ]
            },
            "vat": {
              "$id": "#/properties/data/properties/taxes/properties/vat",
              "type": "number",
              "title": "The Vat Schema",
              "default": 0,
              "examples": [
                0
              ]
            },
            "service_charges": {
              "$id": "#/properties/data/properties/taxes/properties/service_charges",
              "type": "number",
              "title": "The Service_charges Schema",
              "default": 0,
              "examples": [
                0
              ]
            },
            "GST": {
              "$id": "#/properties/data/properties/taxes/properties/GST",
              "type": "number",
              "title": "The Gst Schema",
              "default": 0,
              "examples": [
                2
              ]
            }
          }
        },
        "restaurant_packing_charges": {
          "$id": "#/properties/data/properties/restaurant_packing_charges",
          "type": "number",
          "title": "The Restaurant_packing_charges Schema",
          "default": 0,
          "examples": [
            0
          ]
        },
        "cart_total": {
          "$id": "#/properties/data/properties/cart_total",
          "type": "number",
          "title": "The Cart_total Schema",
          "default": 0,
          "examples": [
            77
          ]
        },
        "order_total": {
          "$id": "#/properties/data/properties/order_total",
          "type": "number",
          "title": "The Order_total Schema",
          "default": 0,
          "examples": [
            77
          ]
        },
        "total_without_coupon_discount": {
          "$id": "#/properties/data/properties/total_without_coupon_discount",
          "type": "number",
          "title": "The Total_without_coupon_discount Schema",
          "default": 0,
          "examples": [
            77
          ]
        },
        "total_packing_charges": {
          "$id": "#/properties/data/properties/total_packing_charges",
          "type": "number",
          "title": "The Total_packing_charges Schema",
          "default": 0,
          "examples": [
            0
          ]
        },
        "discount_total": {
          "$id": "#/properties/data/properties/discount_total",
          "type": "number",
          "title": "The Discount_total Schema",
          "default": 0,
          "examples": [
            0
          ]
        },
        "coupon_discount_total": {
          "$id": "#/properties/data/properties/coupon_discount_total",
          "type": "number",
          "title": "The Coupon_discount_total Schema",
          "default": 0,
          "examples": [
            0
          ]
        },
        "trade_discount_without_freebie": {
          "$id": "#/properties/data/properties/trade_discount_without_freebie",
          "type": "number",
          "title": "The Trade_discount_without_freebie Schema",
          "default": 0,
          "examples": [
            0
          ]
        },
        "trade_discount_total": {
          "$id": "#/properties/data/properties/trade_discount_total",
          "type": "number",
          "title": "The Trade_discount_total Schema",
          "default": 0,
          "examples": [
            0
          ]
        },
        "discount_total_without_freebie": {
          "$id": "#/properties/data/properties/discount_total_without_freebie",
          "type": "number",
          "title": "The Discount_total_without_freebie Schema",
          "default": 0,
          "examples": [
            0
          ]
        },
        "trade_discount_reward_list": {
          "$id": "#/properties/data/properties/trade_discount_reward_list",
          "type": "array",
          "title": "The Trade_discount_reward_list Schema"
        },
        "swiggy_money": {
          "$id": "#/properties/data/properties/swiggy_money",
          "type": "number",
          "title": "The Swiggy_money Schema",
          "default": 0,
          "examples": [
            0
          ]
        },
        "cart_total_count": {
          "$id": "#/properties/data/properties/cart_total_count",
          "type": "number",
          "title": "The Cart_total_count Schema",
          "default": 0,
          "examples": [
            2
          ]
        },
        "restaurant_details": {
          "$id": "#/properties/data/properties/restaurant_details",
          "type": "object",
          "title": "The Restaurant_details Schema",
          "required": [
            "bgColor",
            "textColor",
            "id",
            "lat",
            "lng",
            "phone_no",
            "address",
            "name",
            "third_party_vendor_type",
            "cloudinary_image_id",
            "slug",
            "city",
            "area_name"
          ],
          "properties": {
            "bgColor": {
              "$id": "#/properties/data/properties/restaurant_details/properties/bgColor",
              "type": "null",
              "title": "The Bgcolor Schema",
              "default": null,
              "examples": [
                null
              ]
            },
            "textColor": {
              "$id": "#/properties/data/properties/restaurant_details/properties/textColor",
              "type": "null",
              "title": "The Textcolor Schema",
              "default": null,
              "examples": [
                null
              ]
            },
            "id": {
              "$id": "#/properties/data/properties/restaurant_details/properties/id",
              "type": "string",
              "title": "The Id Schema",
              "default": "",
              "examples": [
                "65997"
              ],
              "pattern": "^(.*)$"
            },
            "lat": {
              "$id": "#/properties/data/properties/restaurant_details/properties/lat",
              "type": "string",
              "title": "The Lat Schema",
              "default": "",
              "examples": [
                "27.8374445"
              ],
              "pattern": "^(.*)$"
            },
            "lng": {
              "$id": "#/properties/data/properties/restaurant_details/properties/lng",
              "type": "string",
              "title": "The Lng Schema",
              "default": "",
              "examples": [
                "76.17257740000002"
              ],
              "pattern": "^(.*)$"
            },
            "phone_no": {
              "$id": "#/properties/data/properties/restaurant_details/properties/phone_no",
              "type": "string",
              "title": "The Phone_no Schema",
              "default": "",
              "examples": [
                "9999999999"
              ],
              "pattern": "^(.*)$"
            },
            "address": {
              "$id": "#/properties/data/properties/restaurant_details/properties/address",
              "type": "string",
              "title": "The Address Schema",
              "default": "",
              "examples": [
                "Automation Address"
              ],
              "pattern": "^(.*)$"
            },
            "name": {
              "$id": "#/properties/data/properties/restaurant_details/properties/name",
              "type": "string",
              "title": "The Name Schema",
              "default": "",
              "examples": [
                "Menson Integration"
              ],
              "pattern": "^(.*)$"
            },
            "third_party_vendor_type": {
              "$id": "#/properties/data/properties/restaurant_details/properties/third_party_vendor_type",
              "type": "null",
              "title": "The Third_party_vendor_type Schema",
              "default": null,
              "examples": [
                null
              ]
            },
            "cloudinary_image_id": {
              "$id": "#/properties/data/properties/restaurant_details/properties/cloudinary_image_id",
              "type": "string",
              "title": "The Cloudinary_image_id Schema",
              "default": "",
              "examples": [
                ""
              ],
              "pattern": "^(.*)$"
            },
            "slug": {
              "$id": "#/properties/data/properties/restaurant_details/properties/slug",
              "type": "string",
              "title": "The Slug Schema",
              "default": "",
              "examples": [
                "mension-integration-ibc-vms_demo_area"
              ],
              "pattern": "^(.*)$"
            },
            "city": {
              "$id": "#/properties/data/properties/restaurant_details/properties/city",
              "type": "string",
              "title": "The City Schema",
              "default": "",
              "examples": [
                "Hyderabad"
              ],
              "pattern": "^(.*)$"
            },
            "area_name": {
              "$id": "#/properties/data/properties/restaurant_details/properties/area_name",
              "type": "string",
              "title": "The Area_name Schema",
              "default": "",
              "examples": [
                "Kachiguda"
              ],
              "pattern": "^(.*)$"
            }
          }
        },
        "is_coupon_valid": {
          "$id": "#/properties/data/properties/is_coupon_valid",
          "type": "number",
          "title": "The Is_coupon_valid Schema",
          "default": 0,
          "examples": [
            0
          ]
        },
        "is_group_parent": {
          "$id": "#/properties/data/properties/is_group_parent",
          "type": "boolean",
          "title": "The Is_group_parent Schema",
          "default": false,
          "examples": [
            true
          ]
        },
        "free_gifts": {
          "$id": "#/properties/data/properties/free_gifts",
          "type": "array",
          "title": "The Free_gifts Schema"
        },
        "free_shipping": {
          "$id": "#/properties/data/properties/free_shipping",
          "type": "number",
          "title": "The Free_shipping Schema",
          "default": 0,
          "examples": [
            0
          ]
        },
        "coupon_error_message": {
          "$id": "#/properties/data/properties/coupon_error_message",
          "type": "string",
          "title": "The Coupon_error_message Schema",
          "default": "",
          "examples": [
            ""
          ],
          "pattern": "^(.*)$"
        },
        "is_sla_honored": {
          "$id": "#/properties/data/properties/is_sla_honored",
          "type": "boolean",
          "title": "The Is_sla_honored Schema",
          "default": false,
          "examples": [
            false
          ]
        },
        "sla_time": {
          "$id": "#/properties/data/properties/sla_time",
          "type": "number",
          "title": "The Sla_time Schema",
          "default": 0,
          "examples": [
            34
          ]
        },
        "sla_range_min": {
          "$id": "#/properties/data/properties/sla_range_min",
          "type": "number",
          "title": "The Sla_range_min Schema",
          "default": 0,
          "examples": [
            30
          ]
        },
        "sla_range_max": {
          "$id": "#/properties/data/properties/sla_range_max",
          "type": "number",
          "title": "The Sla_range_max Schema",
          "default": 0,
          "examples": [
            40
          ]
        },
        "payment_banner_message": {
          "$id": "#/properties/data/properties/payment_banner_message",
          "type": "string",
          "title": "The Payment_banner_message Schema",
          "default": "",
          "examples": [
            "HDFC, CITI bank cards  and Rupay are having low success rates. Please use alternate payment methods"
          ],
          "pattern": "^(.*)$"
        },
        "cart_banner_message": {
          "$id": "#/properties/data/properties/cart_banner_message",
          "type": "string",
          "title": "The Cart_banner_message Schema",
          "default": "",
          "examples": [
            ""
          ],
          "pattern": "^(.*)$"
        },
        "cod_enabled": {
          "$id": "#/properties/data/properties/cod_enabled",
          "type": "boolean",
          "title": "The Cod_enabled Schema",
          "default": false,
          "examples": [
            true
          ]
        },
        "cod_disabled_message": {
          "$id": "#/properties/data/properties/cod_disabled_message",
          "type": "string",
          "title": "The Cod_disabled_message Schema",
          "default": "",
          "examples": [
            ""
          ],
          "pattern": "^(.*)$"
        },
        "cart_popup_title": {
          "$id": "#/properties/data/properties/cart_popup_title",
          "type": "string",
          "title": "The Cart_popup_title Schema",
          "default": "",
          "examples": [
            "Fee applicable"
          ],
          "pattern": "^(.*)$"
        },
        "cart_popup_msg": {
          "$id": "#/properties/data/properties/cart_popup_msg",
          "type": "string",
          "title": "The Cart_popup_msg Schema",
          "default": "",
          "examples": [
            "Base delivery charges applicable on restaurant to help us serve you better"
          ],
          "pattern": "^(.*)$"
        },
        "delivery_fee_type": {
          "$id": "#/properties/data/properties/delivery_fee_type",
          "type": "number",
          "title": "The Delivery_fee_type Schema",
          "default": 0,
          "examples": [
            4
          ]
        },
        "cart_popup_version": {
          "$id": "#/properties/data/properties/cart_popup_version",
          "type": "string",
          "title": "The Cart_popup_version Schema",
          "default": "",
          "examples": [
            "1"
          ],
          "pattern": "^(.*)$"
        },
        "delivery_fee_info": {
          "$id": "#/properties/data/properties/delivery_fee_info",
          "type": "string",
          "title": "The Delivery_fee_info Schema",
          "default": "",
          "examples": [
            "Base delivery charges applicable on restaurant to help us serve you better"
          ],
          "pattern": "^(.*)$"
        },
        "offers": {
          "$id": "#/properties/data/properties/offers",
          "type": "array",
          "title": "The Offers Schema",
          "items": {
            "$id": "#/properties/data/properties/offers/items",
            "type": "object",
            "title": "The Items Schema",
            "required": [
              "payment_mode",
              "promotion_text"
            ],
            "properties": {
              "payment_mode": {
                "$id": "#/properties/data/properties/offers/items/properties/payment_mode",
                "type": "string",
                "title": "The Payment_mode Schema",
                "default": "",
                "examples": [
                  "Freecharge"
                ],
                "pattern": "^(.*)$"
              },
              "promotion_text": {
                "$id": "#/properties/data/properties/offers/items/properties/promotion_text",
                "type": "string",
                "title": "The Promotion_text Schema",
                "default": "",
                "examples": [
                  "Enjoy 25% cashback once for all users; (Max. Rs.50). Valid till 3rd Jan 2018."
                ],
                "pattern": "^(.*)$"
              }
            }
          }
        },
        "is_assured": {
          "$id": "#/properties/data/properties/is_assured",
          "type": "number",
          "title": "The Is_assured Schema",
          "default": 0,
          "examples": [
            0
          ]
        },
        "order_incoming": {
          "$id": "#/properties/data/properties/order_incoming",
          "type": "number",
          "title": "The Order_incoming Schema",
          "default": 0,
          "examples": [
            21
          ]
        },
        "waive_off_amount": {
          "$id": "#/properties/data/properties/waive_off_amount",
          "type": "number",
          "title": "The Waive_off_amount Schema",
          "default": 0,
          "examples": [
            0
          ]
        },
        "order_spending": {
          "$id": "#/properties/data/properties/order_spending",
          "type": "number",
          "title": "The Order_spending Schema",
          "default": 0,
          "examples": [
            0
          ]
        },
        "cancellation_fee": {
          "$id": "#/properties/data/properties/cancellation_fee",
          "type": "number",
          "title": "The Cancellation_fee Schema",
          "default": 0,
          "examples": [
            0
          ]
        },
        "total_tax": {
          "$id": "#/properties/data/properties/total_tax",
          "type": "number",
          "title": "The Total_tax Schema",
          "default": 0,
          "examples": [
            2
          ]
        },
        "cart_type": {
          "$id": "#/properties/data/properties/cart_type",
          "type": "string",
          "title": "The Cart_type Schema",
          "default": "",
          "examples": [
            "REGULAR"
          ],
          "pattern": "^(.*)$"
        },
        "configurations": {
          "$id": "#/properties/data/properties/configurations",
          "type": "object",
          "title": "The Configurations Schema"
        },
        "messages": {
          "$id": "#/properties/data/properties/messages",
          "type": "array",
          "title": "The Messages Schema"
        },
        "GST_details": {
          "$id": "#/properties/data/properties/GST_details",
          "type": "object",
          "title": "The Gst_details Schema",
          "required": [
            "item_SGST",
            "item_CGST",
            "item_IGST",
            "packaging_SGST",
            "packaging_IGST",
            "packaging_CGST",
            "service_charge_SGST",
            "service_charge_IGST",
            "service_charge_CGST",
            "external_GST",
            "cart_SGST",
            "cart_CGST",
            "cart_IGST"
          ],
          "properties": {
            "item_SGST": {
              "$id": "#/properties/data/properties/GST_details/properties/item_SGST",
              "type": "number",
              "title": "The Item_sgst Schema",
              "default": 0,
              "examples": [
                1
              ]
            },
            "item_CGST": {
              "$id": "#/properties/data/properties/GST_details/properties/item_CGST",
              "type": "number",
              "title": "The Item_cgst Schema",
              "default": 0,
              "examples": [
                1
              ]
            },
            "item_IGST": {
              "$id": "#/properties/data/properties/GST_details/properties/item_IGST",
              "type": "number",
              "title": "The Item_igst Schema",
              "default": 0,
              "examples": [
                0
              ]
            },
            "packaging_SGST": {
              "$id": "#/properties/data/properties/GST_details/properties/packaging_SGST",
              "type": "number",
              "title": "The Packaging_sgst Schema",
              "default": 0,
              "examples": [
                0
              ]
            },
            "packaging_IGST": {
              "$id": "#/properties/data/properties/GST_details/properties/packaging_IGST",
              "type": "number",
              "title": "The Packaging_igst Schema",
              "default": 0,
              "examples": [
                0
              ]
            },
            "packaging_CGST": {
              "$id": "#/properties/data/properties/GST_details/properties/packaging_CGST",
              "type": "number",
              "title": "The Packaging_cgst Schema",
              "default": 0,
              "examples": [
                0
              ]
            },
            "service_charge_SGST": {
              "$id": "#/properties/data/properties/GST_details/properties/service_charge_SGST",
              "type": "number",
              "title": "The Service_charge_sgst Schema",
              "default": 0,
              "examples": [
                0
              ]
            },
            "service_charge_IGST": {
              "$id": "#/properties/data/properties/GST_details/properties/service_charge_IGST",
              "type": "number",
              "title": "The Service_charge_igst Schema",
              "default": 0,
              "examples": [
                0
              ]
            },
            "service_charge_CGST": {
              "$id": "#/properties/data/properties/GST_details/properties/service_charge_CGST",
              "type": "number",
              "title": "The Service_charge_cgst Schema",
              "default": 0,
              "examples": [
                0
              ]
            },
            "external_GST": {
              "$id": "#/properties/data/properties/GST_details/properties/external_GST",
              "type": "number",
              "title": "The External_gst Schema",
              "default": 0,
              "examples": [
                0
              ]
            },
            "cart_SGST": {
              "$id": "#/properties/data/properties/GST_details/properties/cart_SGST",
              "type": "number",
              "title": "The Cart_sgst Schema",
              "default": 0,
              "examples": [
                1
              ]
            },
            "cart_CGST": {
              "$id": "#/properties/data/properties/GST_details/properties/cart_CGST",
              "type": "number",
              "title": "The Cart_cgst Schema",
              "default": 0,
              "examples": [
                1
              ]
            },
            "cart_IGST": {
              "$id": "#/properties/data/properties/GST_details/properties/cart_IGST",
              "type": "number",
              "title": "The Cart_igst Schema",
              "default": 0,
              "examples": [
                0
              ]
            }
          }
        },
        "threshold_fee": {
          "$id": "#/properties/data/properties/threshold_fee",
          "type": "number",
          "title": "The Threshold_fee Schema",
          "default": 0,
          "examples": [
            35
          ]
        },
        "distance_fee": {
          "$id": "#/properties/data/properties/distance_fee",
          "type": "number",
          "title": "The Distance_fee Schema",
          "default": 0,
          "examples": [
            0
          ]
        },
        "time_fee": {
          "$id": "#/properties/data/properties/time_fee",
          "type": "number",
          "title": "The Time_fee Schema",
          "default": 0,
          "examples": [
            0
          ]
        },
        "special_fee": {
          "$id": "#/properties/data/properties/special_fee",
          "type": "number",
          "title": "The Special_fee Schema",
          "default": 0,
          "examples": [
            0
          ]
        },
        "convenience_fee": {
          "$id": "#/properties/data/properties/convenience_fee",
          "type": "number",
          "title": "The Convenience_fee Schema",
          "default": 0,
          "examples": [
            0
          ]
        },
        "convenience_fee_info": {
          "$id": "#/properties/data/properties/convenience_fee_info",
          "type": "string",
          "title": "The Convenience_fee_info Schema",
          "default": "",
          "examples": [
            "A surge fee is applicable on this order to help us serve you better. This will be passed on to our delivery executives."
          ],
          "pattern": "^(.*)$"
        },
        "delivery_charges": {
          "$id": "#/properties/data/properties/delivery_charges",
          "type": "number",
          "title": "The Delivery_charges Schema",
          "default": 0,
          "examples": [
            35
          ]
        },
        "threshold_fee_message": {
          "$id": "#/properties/data/properties/threshold_fee_message",
          "type": "string",
          "title": "The Threshold_fee_message Schema",
          "default": "",
          "examples": [
            "Base delivery charges applicable on restaurant to help us serve you better"
          ],
          "pattern": "^(.*)$"
        },
        "distance_fee_message": {
          "$id": "#/properties/data/properties/distance_fee_message",
          "type": "string",
          "title": "The Distance_fee_message Schema",
          "default": "",
          "examples": [
            "Additional delivery charges to go that extra mile for you"
          ],
          "pattern": "^(.*)$"
        },
        "time_fee_message": {
          "$id": "#/properties/data/properties/time_fee_message",
          "type": "string",
          "title": "The Time_fee_message Schema",
          "default": "",
          "examples": [
            "Additional delivery charges to help our fleet burn the midnight oil"
          ],
          "pattern": "^(.*)$"
        },
        "special_fee_message": {
          "$id": "#/properties/data/properties/special_fee_message",
          "type": "string",
          "title": "The Special_fee_message Schema",
          "default": "",
          "examples": [
            "Special fee applicable"
          ],
          "pattern": "^(.*)$"
        },
        "bill_total": {
          "$id": "#/properties/data/properties/bill_total",
          "type": "number",
          "title": "The Bill_total Schema",
          "default": 0,
          "examples": [
            42
          ]
        },
        "item_total": {
          "$id": "#/properties/data/properties/item_total",
          "type": "number",
          "title": "The Item_total Schema",
          "default": 0,
          "examples": [
            40
          ]
        },
        "subscription_total": {
          "$id": "#/properties/data/properties/subscription_total",
          "type": "number",
          "title": "The Subscription_total Schema",
          "default": 0,
          "examples": [
            0
          ]
        },
        "is_super_trade_discount": {
          "$id": "#/properties/data/properties/is_super_trade_discount",
          "type": "boolean",
          "title": "The Is_super_trade_discount Schema",
          "default": false,
          "examples": [
            false
          ]
        },
        "free_delivery_discount": {
          "$id": "#/properties/data/properties/free_delivery_discount",
          "type": "number",
          "title": "The Free_delivery_discount Schema",
          "default": 0,
          "examples": [
            0
          ]
        },
        "cart_token": {
          "$id": "#/properties/data/properties/cart_token",
          "type": "string",
          "title": "The Cart_token Schema",
          "default": "",
          "examples": [
            ""
          ],
          "pattern": "^(.*)$"
        }
      }
    },
    "tid": {
      "$id": "#/properties/tid",
      "type": "string",
      "title": "The Tid Schema",
      "default": "",
      "examples": [
        "5c442f25-d5ff-4946-b223-039e58efa2e6"
      ],
      "pattern": "^(.*)$"
    },
    "sid": {
      "$id": "#/properties/sid",
      "type": "string",
      "title": "The Sid Schema",
      "default": "",
      "examples": [
        "bf48863e-a7a4-4c65-a6d8-6f7de439e51b"
      ],
      "pattern": "^(.*)$"
    },
    "deviceId": {
      "$id": "#/properties/deviceId",
      "type": "string",
      "title": "The Deviceid Schema",
      "default": "",
      "examples": [
        "dbbb1c6f-0516-41ac-b605-c7fb6da09393"
      ],
      "pattern": "^(.*)$"
    },
    "successful": {
      "$id": "#/properties/successful",
      "type": "boolean",
      "title": "The Successful Schema",
      "default": false,
      "examples": [
        true
      ]
    }
  }
}