{
  "definitions": {},
  "$schema": "http://json-schema.org/draft-06/schema#",
  "$id": "http://example.com/root.json",
  "type": "object",
  "title": "The Root Schema",
  "required": [
    "statusCode",
    "statusMessage",
    "data",
    "tid",
    "sid",
    "deviceId",
    "successful"
  ],
  "properties": {
    "statusCode": {
      "$id": "#/properties/statusCode",
      "type": "number",
      "title": "The Statuscode Schema",
      "default": 0,
      "examples": [
        0
      ]
    },
    "statusMessage": {
      "$id": "#/properties/statusMessage",
      "type": "string",
      "title": "The Statusmessage Schema",
      "default": "",
      "examples": [
        "done successfully"
      ],
      "pattern": "^(.*)$"
    },
    "data": {
      "$id": "#/properties/data",
      "type": "object",
      "title": "The Data Schema",
      "required": [
        "payment_fallbacks",
        "order_data",
        "invalid_coupon_response",
        "inventory_messages"
      ],
      "properties": {
        "payment_fallbacks": {
          "$id": "#/properties/data/properties/payment_fallbacks",
          "type": "null",
          "title": "The Payment_fallbacks Schema",
          "default": null,
          "examples": [
            null
          ]
        },
        "order_data": {
          "$id": "#/properties/data/properties/order_data",
          "type": "object",
          "title": "The Order_data Schema",
          "required": [
            "sharedOrder",
            "order_id",
            "delivery_address",
            "order_items",
            "order_meals",
            "order_subscriptions",
            "charges",
            "free_gifts",
            "is_coupon_applied",
            "coupon_applied",
            "order_time",
            "customer_id",
            "order_status",
            "post_status",
            "order_type",
            "post_type",
            "post_name",
            "order_placement_status",
            "billing_address_id",
            "sla_time",
            "restaurant_id",
            "restaurant_name",
            "restaurant_address",
            "restaurant_locality",
            "restaurant_type",
            "restaurant_coverage_area",
            "restaurant_city_code",
            "restaurant_city_name",
            "restaurant_area_code",
            "restaurant_cuisine",
            "payment_method",
            "order_delivery_status",
            "ordered_time_in_seconds",
            "delivered_time_in_seconds",
            "delivery_time_in_seconds",
            "order_total",
            "item_total",
            "subscription_total",
            "subscription_tax",
            "subscription_total_without_tax",
            "original_order_total",
            "swiggy_money",
            "order_tax",
            "free_shipping",
            "order_discount_without_freebie",
            "order_discount",
            "coupon_discount",
            "trade_discount",
            "free_delivery_discount_hit",
            "freebie_discount_hit",
            "has_rating",
            "order_spending",
            "order_incoming",
            "waive_off_amount",
            "edit_refund_amount",
            "order_restaurant_bill",
            "order_notes",
            "restaurant_lat_lng",
            "restaurant_customer_distance",
            "customer_care_number",
            "pg_response_time",
            "converted_to_cod",
            "last_failed_order_id",
            "order_delivery_charge",
            "convenience_fee",
            "customer_user_agent",
            "overbooking",
            "payment_confirmation_channel",
            "billing_lat",
            "billing_lng",
            "payment_txn_id",
            "coupon_code",
            "with_de",
            "restaurant_new_slug",
            "distance_calc_method",
            "is_partner_enable",
            "partner_id",
            "type_of_partner",
            "prep_time",
            "restaurant_has_inventory",
            "order_payment_method",
            "pay_by_system_value",
            "de_pickedup_refund",
            "agreement_type",
            "is_ivr_enabled",
            "is_refund_initiated",
            "restaurant_cover_image",
            "restaurant_area_name",
            "cust_lat_lng",
            "key",
            "is_assured",
            "delayed_placing",
            "on_time",
            "sla_difference",
            "actual_sla_time",
            "payment_txn_status",
            "restaurant_taxation_type",
            "rain_mode",
            "payment",
            "device_id",
            "swuid",
            "tid",
            "sid",
            "listing_version_shown",
            "menu_shown",
            "is_replicated",
            "is_cancellable",
            "cancellation_fee_collected",
            "cancellation_fee_applied",
            "cancellation_fee_collected_total",
            "commission_on_full_bill",
            "is_select",
            "is_first_order_delivered",
            "first_order",
            "rendering_details",
            "mCancellationTime",
            "configurations",
            "GST_on_subscription",
            "subscription_gst_expression",
            "success_message",
            "success_message_info",
            "success_title",
            "success_message_type",
            "threshold_fee",
            "distance_fee",
            "time_fee",
            "special_fee",
            "order_tags"
          ],
          "properties": {
            "sharedOrder": {
              "$id": "#/properties/data/properties/order_data/properties/sharedOrder",
              "type": "boolean",
              "title": "The Sharedorder Schema",
              "default": false,
              "examples": [
                false
              ]
            },
            "order_id": {
              "$id": "#/properties/data/properties/order_data/properties/order_id",
              "type": "number",
              "title": "The Order_id Schema",
              "default": 0,
              "examples": [
                18982564335
              ]
            },
            "delivery_address": {
              "$id": "#/properties/data/properties/order_data/properties/delivery_address",
              "type": "object",
              "title": "The Delivery_address Schema",
              "required": [
                "id",
                "name",
                "address_line1",
                "address",
                "landmark",
                "area",
                "mobile",
                "annotation",
                "email",
                "flat_no",
                "city",
                "lat",
                "lng",
                "reverse_geo_code_failed"
              ],
              "properties": {
                "id": {
                  "$id": "#/properties/data/properties/order_data/properties/delivery_address/properties/id",
                  "type": "string",
                  "title": "The Id Schema",
                  "default": "",
                  "examples": [
                    "14980905"
                  ],
                  "pattern": "^(.*)$"
                },
                "name": {
                  "$id": "#/properties/data/properties/order_data/properties/delivery_address/properties/name",
                  "type": "string",
                  "title": "The Name Schema",
                  "default": "",
                  "examples": [
                    "Aarab"
                  ],
                  "pattern": "^(.*)$"
                },
                "address_line1": {
                  "$id": "#/properties/data/properties/order_data/properties/delivery_address/properties/address_line1",
                  "type": "string",
                  "title": "The Address_line1 Schema",
                  "default": "",
                  "examples": [
                    "Unnamed Road, Budhwal, Haryana 123023, India"
                  ],
                  "pattern": "^(.*)$"
                },
                "address": {
                  "$id": "#/properties/data/properties/order_data/properties/delivery_address/properties/address",
                  "type": "string",
                  "title": "The Address Schema",
                  "default": "",
                  "examples": [
                    "Unnamed Road, Budhwal, Haryana 123023, India"
                  ],
                  "pattern": "^(.*)$"
                },
                "landmark": {
                  "$id": "#/properties/data/properties/order_data/properties/delivery_address/properties/landmark",
                  "type": "string",
                  "title": "The Landmark Schema",
                  "default": "",
                  "examples": [
                    "test"
                  ],
                  "pattern": "^(.*)$"
                },
                "area": {
                  "$id": "#/properties/data/properties/order_data/properties/delivery_address/properties/area",
                  "type": "string",
                  "title": "The Area Schema",
                  "default": "",
                  "examples": [
                    "test area"
                  ],
                  "pattern": "^(.*)$"
                },
                "mobile": {
                  "$id": "#/properties/data/properties/order_data/properties/delivery_address/properties/mobile",
                  "type": "string",
                  "title": "The Mobile Schema",
                  "default": "",
                  "examples": [
                    "7990012757"
                  ],
                  "pattern": "^(.*)$"
                },
                "annotation": {
                  "$id": "#/properties/data/properties/order_data/properties/delivery_address/properties/annotation",
                  "type": "string",
                  "title": "The Annotation Schema",
                  "default": "",
                  "examples": [
                    "Testing"
                  ],
                  "pattern": "^(.*)$"
                },
                "email": {
                  "$id": "#/properties/data/properties/order_data/properties/delivery_address/properties/email",
                  "type": "string",
                  "title": "The Email Schema",
                  "default": "",
                  "examples": [
                    "toughlook1@gmail.com"
                  ],
                  "pattern": "^(.*)$"
                },
                "flat_no": {
                  "$id": "#/properties/data/properties/order_data/properties/delivery_address/properties/flat_no",
                  "type": "string",
                  "title": "The Flat_no Schema",
                  "default": "",
                  "examples": [
                    "10"
                  ],
                  "pattern": "^(.*)$"
                },
                "city": {
                  "$id": "#/properties/data/properties/order_data/properties/delivery_address/properties/city",
                  "type": "string",
                  "title": "The City Schema",
                  "default": "",
                  "examples": [
                    "budhwal"
                  ],
                  "pattern": "^(.*)$"
                },
                "lat": {
                  "$id": "#/properties/data/properties/order_data/properties/delivery_address/properties/lat",
                  "type": "string",
                  "title": "The Lat Schema",
                  "default": "",
                  "examples": [
                    "27.835629"
                  ],
                  "pattern": "^(.*)$"
                },
                "lng": {
                  "$id": "#/properties/data/properties/order_data/properties/delivery_address/properties/lng",
                  "type": "string",
                  "title": "The Lng Schema",
                  "default": "",
                  "examples": [
                    "76.173089"
                  ],
                  "pattern": "^(.*)$"
                },
                "reverse_geo_code_failed": {
                  "$id": "#/properties/data/properties/order_data/properties/delivery_address/properties/reverse_geo_code_failed",
                  "type": "boolean",
                  "title": "The Reverse_geo_code_failed Schema",
                  "default": false,
                  "examples": [
                    false
                  ]
                }
              }
            },
            "order_items": {
              "$id": "#/properties/data/properties/order_data/properties/order_items",
              "type": "array",
              "title": "The Order_items Schema",
              "items": {
                "$id": "#/properties/data/properties/order_data/properties/order_items/items",
                "type": "object",
                "title": "The Items Schema",
                "required": [
                  "added_by_user_id",
                  "added_by_username",
                  "group_user_item_map",
                  "item_id",
                  "external_item_id",
                  "name",
                  "is_veg",
                  "variants",
                  "addons",
                  "image_id",
                  "quantity",
                  "total",
                  "subtotal",
                  "packing_charges",
                  "category_details",
                  "global_main_category",
                  "global_sub_category",
                  "item_charges",
                  "meal_quantity",
                  "single_variant"
                ],
                "properties": {
                  "added_by_user_id": {
                    "$id": "#/properties/data/properties/order_data/properties/order_items/items/properties/added_by_user_id",
                    "type": "number",
                    "title": "The Added_by_user_id Schema",
                    "default": 0,
                    "examples": [
                      -1
                    ]
                  },
                  "added_by_username": {
                    "$id": "#/properties/data/properties/order_data/properties/order_items/items/properties/added_by_username",
                    "type": "string",
                    "title": "The Added_by_username Schema",
                    "default": "",
                    "examples": [
                      ""
                    ],
                    "pattern": "^(.*)$"
                  },
                  "group_user_item_map": {
                    "$id": "#/properties/data/properties/order_data/properties/order_items/items/properties/group_user_item_map",
                    "type": "object",
                    "title": "The Group_user_item_map Schema"
                  },
                  "item_id": {
                    "$id": "#/properties/data/properties/order_data/properties/order_items/items/properties/item_id",
                    "type": "string",
                    "title": "The Item_id Schema",
                    "default": "",
                    "examples": [
                      "9022046"
                    ],
                    "pattern": "^(.*)$"
                  },
                  "external_item_id": {
                    "$id": "#/properties/data/properties/order_data/properties/order_items/items/properties/external_item_id",
                    "type": "string",
                    "title": "The External_item_id Schema",
                    "default": "",
                    "examples": [
                      "5a391b31978de9507b01bc4e"
                    ],
                    "pattern": "^(.*)$"
                  },
                  "name": {
                    "$id": "#/properties/data/properties/order_data/properties/order_items/items/properties/name",
                    "type": "string",
                    "title": "The Name Schema",
                    "default": "",
                    "examples": [
                      "Butter Paneer Masala"
                    ],
                    "pattern": "^(.*)$"
                  },
                  "is_veg": {
                    "$id": "#/properties/data/properties/order_data/properties/order_items/items/properties/is_veg",
                    "type": "string",
                    "title": "The Is_veg Schema",
                    "default": "",
                    "examples": [
                      "1"
                    ],
                    "pattern": "^(.*)$"
                  },
                  "variants": {
                    "$id": "#/properties/data/properties/order_data/properties/order_items/items/properties/variants",
                    "type": "array",
                    "title": "The Variants Schema"
                  },
                  "addons": {
                    "$id": "#/properties/data/properties/order_data/properties/order_items/items/properties/addons",
                    "type": "array",
                    "title": "The Addons Schema"
                  },
                  "image_id": {
                    "$id": "#/properties/data/properties/order_data/properties/order_items/items/properties/image_id",
                    "type": "string",
                    "title": "The Image_id Schema",
                    "default": "",
                    "examples": [
                      ""
                    ],
                    "pattern": "^(.*)$"
                  },
                  "quantity": {
                    "$id": "#/properties/data/properties/order_data/properties/order_items/items/properties/quantity",
                    "type": "string",
                    "title": "The Quantity Schema",
                    "default": "",
                    "examples": [
                      "1"
                    ],
                    "pattern": "^(.*)$"
                  },
                  "total": {
                    "$id": "#/properties/data/properties/order_data/properties/order_items/items/properties/total",
                    "type": "string",
                    "title": "The Total Schema",
                    "default": "",
                    "examples": [
                      "1"
                    ],
                    "pattern": "^(.*)$"
                  },
                  "subtotal": {
                    "$id": "#/properties/data/properties/order_data/properties/order_items/items/properties/subtotal",
                    "type": "string",
                    "title": "The Subtotal Schema",
                    "default": "",
                    "examples": [
                      "1"
                    ],
                    "pattern": "^(.*)$"
                  },
                  "packing_charges": {
                    "$id": "#/properties/data/properties/order_data/properties/order_items/items/properties/packing_charges",
                    "type": "string",
                    "title": "The Packing_charges Schema",
                    "default": "",
                    "examples": [
                      "0"
                    ],
                    "pattern": "^(.*)$"
                  },
                  "category_details": {
                    "$id": "#/properties/data/properties/order_data/properties/order_items/items/properties/category_details",
                    "type": "object",
                    "title": "The Category_details Schema",
                    "required": [
                      "category",
                      "sub_category"
                    ],
                    "properties": {
                      "category": {
                        "$id": "#/properties/data/properties/order_data/properties/order_items/items/properties/category_details/properties/category",
                        "type": "string",
                        "title": "The Category Schema",
                        "default": "",
                        "examples": [
                          "Chicken Gravies"
                        ],
                        "pattern": "^(.*)$"
                      },
                      "sub_category": {
                        "$id": "#/properties/data/properties/order_data/properties/order_items/items/properties/category_details/properties/sub_category",
                        "type": "string",
                        "title": "The Sub_category Schema",
                        "default": "",
                        "examples": [
                          "nota"
                        ],
                        "pattern": "^(.*)$"
                      }
                    }
                  },
                  "global_main_category": {
                    "$id": "#/properties/data/properties/order_data/properties/order_items/items/properties/global_main_category",
                    "type": "string",
                    "title": "The Global_main_category Schema",
                    "default": "",
                    "examples": [
                      ""
                    ],
                    "pattern": "^(.*)$"
                  },
                  "global_sub_category": {
                    "$id": "#/properties/data/properties/order_data/properties/order_items/items/properties/global_sub_category",
                    "type": "string",
                    "title": "The Global_sub_category Schema",
                    "default": "",
                    "examples": [
                      ""
                    ],
                    "pattern": "^(.*)$"
                  },
                  "item_charges": {
                    "$id": "#/properties/data/properties/order_data/properties/order_items/items/properties/item_charges",
                    "type": "object",
                    "title": "The Item_charges Schema",
                    "required": [
                      "Vat",
                      "Service Charges",
                      "Service Tax",
                      "GST"
                    ],
                    "properties": {
                      "Vat": {
                        "$id": "#/properties/data/properties/order_data/properties/order_items/items/properties/item_charges/properties/Vat",
                        "type": "string",
                        "title": "The Vat Schema",
                        "default": "",
                        "examples": [
                          "0"
                        ],
                        "pattern": "^(.*)$"
                      },
                      "Service Charges": {
                        "$id": "#/properties/data/properties/order_data/properties/order_items/items/properties/item_charges/properties/Service Charges",
                        "type": "string",
                        "title": "The Service charges Schema",
                        "default": "",
                        "examples": [
                          "0"
                        ],
                        "pattern": "^(.*)$"
                      },
                      "Service Tax": {
                        "$id": "#/properties/data/properties/order_data/properties/order_items/items/properties/item_charges/properties/Service Tax",
                        "type": "string",
                        "title": "The Service tax Schema",
                        "default": "",
                        "examples": [
                          "0"
                        ],
                        "pattern": "^(.*)$"
                      },
                      "GST": {
                        "$id": "#/properties/data/properties/order_data/properties/order_items/items/properties/item_charges/properties/GST",
                        "type": "string",
                        "title": "The Gst Schema",
                        "default": "",
                        "examples": [
                          "0.05"
                        ],
                        "pattern": "^(.*)$"
                      }
                    }
                  },
                  "meal_quantity": {
                    "$id": "#/properties/data/properties/order_data/properties/order_items/items/properties/meal_quantity",
                    "type": "string",
                    "title": "The Meal_quantity Schema",
                    "default": "",
                    "examples": [
                      "1"
                    ],
                    "pattern": "^(.*)$"
                  },
                  "single_variant": {
                    "$id": "#/properties/data/properties/order_data/properties/order_items/items/properties/single_variant",
                    "type": "boolean",
                    "title": "The Single_variant Schema",
                    "default": false,
                    "examples": [
                      false
                    ]
                  }
                }
              }
            },
            "order_meals": {
              "$id": "#/properties/data/properties/order_data/properties/order_meals",
              "type": "array",
              "title": "The Order_meals Schema"
            },
            "order_subscriptions": {
              "$id": "#/properties/data/properties/order_data/properties/order_subscriptions",
              "type": "array",
              "title": "The Order_subscriptions Schema"
            },
            "charges": {
              "$id": "#/properties/data/properties/order_data/properties/charges",
              "type": "object",
              "title": "The Charges Schema",
              "required": [
                "Vat",
                "Service Charges",
                "Service Tax",
                "Delivery Charges",
                "Packing Charges",
                "Convenience Fee",
                "Cancellation Fee",
                "GST"
              ],
              "properties": {
                "Vat": {
                  "$id": "#/properties/data/properties/order_data/properties/charges/properties/Vat",
                  "type": "string",
                  "title": "The Vat Schema",
                  "default": "",
                  "examples": [
                    "0"
                  ],
                  "pattern": "^(.*)$"
                },
                "Service Charges": {
                  "$id": "#/properties/data/properties/order_data/properties/charges/properties/Service Charges",
                  "type": "string",
                  "title": "The Service charges Schema",
                  "default": "",
                  "examples": [
                    "0"
                  ],
                  "pattern": "^(.*)$"
                },
                "Service Tax": {
                  "$id": "#/properties/data/properties/order_data/properties/charges/properties/Service Tax",
                  "type": "string",
                  "title": "The Service tax Schema",
                  "default": "",
                  "examples": [
                    "0"
                  ],
                  "pattern": "^(.*)$"
                },
                "Delivery Charges": {
                  "$id": "#/properties/data/properties/order_data/properties/charges/properties/Delivery Charges",
                  "type": "string",
                  "title": "The Delivery charges Schema",
                  "default": "",
                  "examples": [
                    "0"
                  ],
                  "pattern": "^(.*)$"
                },
                "Packing Charges": {
                  "$id": "#/properties/data/properties/order_data/properties/charges/properties/Packing Charges",
                  "type": "string",
                  "title": "The Packing charges Schema",
                  "default": "",
                  "examples": [
                    "0"
                  ],
                  "pattern": "^(.*)$"
                },
                "Convenience Fee": {
                  "$id": "#/properties/data/properties/order_data/properties/charges/properties/Convenience Fee",
                  "type": "string",
                  "title": "The Convenience fee Schema",
                  "default": "",
                  "examples": [
                    "0"
                  ],
                  "pattern": "^(.*)$"
                },
                "Cancellation Fee": {
                  "$id": "#/properties/data/properties/order_data/properties/charges/properties/Cancellation Fee",
                  "type": "string",
                  "title": "The Cancellation fee Schema",
                  "default": "",
                  "examples": [
                    "0"
                  ],
                  "pattern": "^(.*)$"
                },
                "GST": {
                  "$id": "#/properties/data/properties/order_data/properties/charges/properties/GST",
                  "type": "string",
                  "title": "The Gst Schema",
                  "default": "",
                  "examples": [
                    "0.05"
                  ],
                  "pattern": "^(.*)$"
                }
              }
            },
            "free_gifts": {
              "$id": "#/properties/data/properties/order_data/properties/free_gifts",
              "type": "array",
              "title": "The Free_gifts Schema"
            },
            "is_coupon_applied": {
              "$id": "#/properties/data/properties/order_data/properties/is_coupon_applied",
              "type": "boolean",
              "title": "The Is_coupon_applied Schema",
              "default": false,
              "examples": [
                false
              ]
            },
            "coupon_applied": {
              "$id": "#/properties/data/properties/order_data/properties/coupon_applied",
              "type": "string",
              "title": "The Coupon_applied Schema",
              "default": "",
              "examples": [
                ""
              ],
              "pattern": "^(.*)$"
            },
            "order_time": {
              "$id": "#/properties/data/properties/order_data/properties/order_time",
              "type": "string",
              "title": "The Order_time Schema",
              "default": "",
              "examples": [
                "2018-09-02 22:26:04"
              ],
              "pattern": "^(.*)$"
            },
            "customer_id": {
              "$id": "#/properties/data/properties/order_data/properties/customer_id",
              "type": "string",
              "title": "The Customer_id Schema",
              "default": "",
              "examples": [
                "7847277"
              ],
              "pattern": "^(.*)$"
            },
            "order_status": {
              "$id": "#/properties/data/properties/order_data/properties/order_status",
              "type": "string",
              "title": "The Order_status Schema",
              "default": "",
              "examples": [
                "processing"
              ],
              "pattern": "^(.*)$"
            },
            "post_status": {
              "$id": "#/properties/data/properties/order_data/properties/post_status",
              "type": "string",
              "title": "The Post_status Schema",
              "default": "",
              "examples": [
                "processing"
              ],
              "pattern": "^(.*)$"
            },
            "order_type": {
              "$id": "#/properties/data/properties/order_data/properties/order_type",
              "type": "string",
              "title": "The Order_type Schema",
              "default": "",
              "examples": [
                "regular"
              ],
              "pattern": "^(.*)$"
            },
            "post_type": {
              "$id": "#/properties/data/properties/order_data/properties/post_type",
              "type": "string",
              "title": "The Post_type Schema",
              "default": "",
              "examples": [
                ""
              ],
              "pattern": "^(.*)$"
            },
            "post_name": {
              "$id": "#/properties/data/properties/order_data/properties/post_name",
              "type": "string",
              "title": "The Post_name Schema",
              "default": "",
              "examples": [
                ""
              ],
              "pattern": "^(.*)$"
            },
            "order_placement_status": {
              "$id": "#/properties/data/properties/order_data/properties/order_placement_status",
              "type": "string",
              "title": "The Order_placement_status Schema",
              "default": "",
              "examples": [
                "0"
              ],
              "pattern": "^(.*)$"
            },
            "billing_address_id": {
              "$id": "#/properties/data/properties/order_data/properties/billing_address_id",
              "type": "string",
              "title": "The Billing_address_id Schema",
              "default": "",
              "examples": [
                "14980905"
              ],
              "pattern": "^(.*)$"
            },
            "sla_time": {
              "$id": "#/properties/data/properties/order_data/properties/sla_time",
              "type": "string",
              "title": "The Sla_time Schema",
              "default": "",
              "examples": [
                "29"
              ],
              "pattern": "^(.*)$"
            },
            "restaurant_id": {
              "$id": "#/properties/data/properties/order_data/properties/restaurant_id",
              "type": "string",
              "title": "The Restaurant_id Schema",
              "default": "",
              "examples": [
                "43346"
              ],
              "pattern": "^(.*)$"
            },
            "restaurant_name": {
              "$id": "#/properties/data/properties/order_data/properties/restaurant_name",
              "type": "string",
              "title": "The Restaurant_name Schema",
              "default": "",
              "examples": [
                "Inresto integration VMS"
              ],
              "pattern": "^(.*)$"
            },
            "restaurant_address": {
              "$id": "#/properties/data/properties/order_data/properties/restaurant_address",
              "type": "string",
              "title": "The Restaurant_address Schema",
              "default": "",
              "examples": [
                "Automation Address"
              ],
              "pattern": "^(.*)$"
            },
            "restaurant_locality": {
              "$id": "#/properties/data/properties/order_data/properties/restaurant_locality",
              "type": "string",
              "title": "The Restaurant_locality Schema",
              "default": "",
              "examples": [
                "Koramagala"
              ],
              "pattern": "^(.*)$"
            },
            "restaurant_type": {
              "$id": "#/properties/data/properties/order_data/properties/restaurant_type",
              "type": "string",
              "title": "The Restaurant_type Schema",
              "default": "",
              "examples": [
                "F"
              ],
              "pattern": "^(.*)$"
            },
            "restaurant_coverage_area": {
              "$id": "#/properties/data/properties/order_data/properties/restaurant_coverage_area",
              "type": "string",
              "title": "The Restaurant_coverage_area Schema",
              "default": "",
              "examples": [
                "vmsdemo"
              ],
              "pattern": "^(.*)$"
            },
            "restaurant_city_code": {
              "$id": "#/properties/data/properties/order_data/properties/restaurant_city_code",
              "type": "string",
              "title": "The Restaurant_city_code Schema",
              "default": "",
              "examples": [
                "3"
              ],
              "pattern": "^(.*)$"
            },
            "restaurant_city_name": {
              "$id": "#/properties/data/properties/order_data/properties/restaurant_city_name",
              "type": "string",
              "title": "The Restaurant_city_name Schema",
              "default": "",
              "examples": [
                "Hyderabad"
              ],
              "pattern": "^(.*)$"
            },
            "restaurant_area_code": {
              "$id": "#/properties/data/properties/order_data/properties/restaurant_area_code",
              "type": "string",
              "title": "The Restaurant_area_code Schema",
              "default": "",
              "examples": [
                "216"
              ],
              "pattern": "^(.*)$"
            },
            "restaurant_cuisine": {
              "$id": "#/properties/data/properties/order_data/properties/restaurant_cuisine",
              "type": "array",
              "title": "The Restaurant_cuisine Schema",
              "items": {
                "$id": "#/properties/data/properties/order_data/properties/restaurant_cuisine/items",
                "type": "string",
                "title": "The Items Schema",
                "default": "",
                "examples": [
                  "Bengali",
                  "Fast Food"
                ],
                "pattern": "^(.*)$"
              }
            },
            "payment_method": {
              "$id": "#/properties/data/properties/order_data/properties/payment_method",
              "type": "string",
              "title": "The Payment_method Schema",
              "default": "",
              "examples": [
                "Mobikwik"
              ],
              "pattern": "^(.*)$"
            },
            "order_delivery_status": {
              "$id": "#/properties/data/properties/order_data/properties/order_delivery_status",
              "type": "string",
              "title": "The Order_delivery_status Schema",
              "default": "",
              "examples": [
                ""
              ],
              "pattern": "^(.*)$"
            },
            "ordered_time_in_seconds": {
              "$id": "#/properties/data/properties/order_data/properties/ordered_time_in_seconds",
              "type": "number",
              "title": "The Ordered_time_in_seconds Schema",
              "default": 0,
              "examples": [
                1535907364
              ]
            },
            "delivered_time_in_seconds": {
              "$id": "#/properties/data/properties/order_data/properties/delivered_time_in_seconds",
              "type": "string",
              "title": "The Delivered_time_in_seconds Schema",
              "default": "",
              "examples": [
                "0"
              ],
              "pattern": "^(.*)$"
            },
            "delivery_time_in_seconds": {
              "$id": "#/properties/data/properties/order_data/properties/delivery_time_in_seconds",
              "type": "string",
              "title": "The Delivery_time_in_seconds Schema",
              "default": "",
              "examples": [
                "0"
              ],
              "pattern": "^(.*)$"
            },
            "order_total": {
              "$id": "#/properties/data/properties/order_data/properties/order_total",
              "type": "number",
              "title": "The Order_total Schema",
              "default": 0,
              "examples": [
                1
              ]
            },
            "item_total": {
              "$id": "#/properties/data/properties/order_data/properties/item_total",
              "type": "number",
              "title": "The Item_total Schema",
              "default": 0,
              "examples": [
                1
              ]
            },
            "subscription_total": {
              "$id": "#/properties/data/properties/order_data/properties/subscription_total",
              "type": "number",
              "title": "The Subscription_total Schema",
              "default": 0,
              "examples": [
                0
              ]
            },
            "subscription_tax": {
              "$id": "#/properties/data/properties/order_data/properties/subscription_tax",
              "type": "number",
              "title": "The Subscription_tax Schema",
              "default": 0,
              "examples": [
                0
              ]
            },
            "subscription_total_without_tax": {
              "$id": "#/properties/data/properties/order_data/properties/subscription_total_without_tax",
              "type": "number",
              "title": "The Subscription_total_without_tax Schema",
              "default": 0,
              "examples": [
                0
              ]
            },
            "original_order_total": {
              "$id": "#/properties/data/properties/order_data/properties/original_order_total",
              "type": "number",
              "title": "The Original_order_total Schema",
              "default": 0,
              "examples": [
                1
              ]
            },
            "swiggy_money": {
              "$id": "#/properties/data/properties/order_data/properties/swiggy_money",
              "type": "number",
              "title": "The Swiggy_money Schema",
              "default": 0,
              "examples": [
                0
              ]
            },
            "order_tax": {
              "$id": "#/properties/data/properties/order_data/properties/order_tax",
              "type": "number",
              "title": "The Order_tax Schema",
              "default": 0.0,
              "examples": [
                0.05
              ]
            },
            "free_shipping": {
              "$id": "#/properties/data/properties/order_data/properties/free_shipping",
              "type": "string",
              "title": "The Free_shipping Schema",
              "default": "",
              "examples": [
                "0"
              ],
              "pattern": "^(.*)$"
            },
            "order_discount_without_freebie": {
              "$id": "#/properties/data/properties/order_data/properties/order_discount_without_freebie",
              "type": "number",
              "title": "The Order_discount_without_freebie Schema",
              "default": 0,
              "examples": [
                0
              ]
            },
            "order_discount": {
              "$id": "#/properties/data/properties/order_data/properties/order_discount",
              "type": "number",
              "title": "The Order_discount Schema",
              "default": 0,
              "examples": [
                0
              ]
            },
            "coupon_discount": {
              "$id": "#/properties/data/properties/order_data/properties/coupon_discount",
              "type": "number",
              "title": "The Coupon_discount Schema",
              "default": 0,
              "examples": [
                0
              ]
            },
            "trade_discount": {
              "$id": "#/properties/data/properties/order_data/properties/trade_discount",
              "type": "number",
              "title": "The Trade_discount Schema",
              "default": 0,
              "examples": [
                0
              ]
            },
            "free_delivery_discount_hit": {
              "$id": "#/properties/data/properties/order_data/properties/free_delivery_discount_hit",
              "type": "number",
              "title": "The Free_delivery_discount_hit Schema",
              "default": 0,
              "examples": [
                0
              ]
            },
            "freebie_discount_hit": {
              "$id": "#/properties/data/properties/order_data/properties/freebie_discount_hit",
              "type": "number",
              "title": "The Freebie_discount_hit Schema",
              "default": 0,
              "examples": [
                0
              ]
            },
            "has_rating": {
              "$id": "#/properties/data/properties/order_data/properties/has_rating",
              "type": "string",
              "title": "The Has_rating Schema",
              "default": "",
              "examples": [
                "0"
              ],
              "pattern": "^(.*)$"
            },
            "order_spending": {
              "$id": "#/properties/data/properties/order_data/properties/order_spending",
              "type": "string",
              "title": "The Order_spending Schema",
              "default": "",
              "examples": [
                "0"
              ],
              "pattern": "^(.*)$"
            },
            "order_incoming": {
              "$id": "#/properties/data/properties/order_data/properties/order_incoming",
              "type": "string",
              "title": "The Order_incoming Schema",
              "default": "",
              "examples": [
                "0"
              ],
              "pattern": "^(.*)$"
            },
            "waive_off_amount": {
              "$id": "#/properties/data/properties/order_data/properties/waive_off_amount",
              "type": "number",
              "title": "The Waive_off_amount Schema",
              "default": 0,
              "examples": [
                0
              ]
            },
            "edit_refund_amount": {
              "$id": "#/properties/data/properties/order_data/properties/edit_refund_amount",
              "type": "number",
              "title": "The Edit_refund_amount Schema",
              "default": 0,
              "examples": [
                0
              ]
            },
            "order_restaurant_bill": {
              "$id": "#/properties/data/properties/order_data/properties/order_restaurant_bill",
              "type": "string",
              "title": "The Order_restaurant_bill Schema",
              "default": "",
              "examples": [
                "1"
              ],
              "pattern": "^(.*)$"
            },
            "order_notes": {
              "$id": "#/properties/data/properties/order_data/properties/order_notes",
              "type": "string",
              "title": "The Order_notes Schema",
              "default": "",
              "examples": [
                "Test"
              ],
              "pattern": "^(.*)$"
            },
            "restaurant_lat_lng": {
              "$id": "#/properties/data/properties/order_data/properties/restaurant_lat_lng",
              "type": "string",
              "title": "The Restaurant_lat_lng Schema",
              "default": "",
              "examples": [
                "27.8374445,76.17257740000002"
              ],
              "pattern": "^(.*)$"
            },
            "restaurant_customer_distance": {
              "$id": "#/properties/data/properties/order_data/properties/restaurant_customer_distance",
              "type": "string",
              "title": "The Restaurant_customer_distance Schema",
              "default": "",
              "examples": [
                "0.1"
              ],
              "pattern": "^(.*)$"
            },
            "customer_care_number": {
              "$id": "#/properties/data/properties/order_data/properties/customer_care_number",
              "type": "string",
              "title": "The Customer_care_number Schema",
              "default": "",
              "examples": [
                "08067466794"
              ],
              "pattern": "^(.*)$"
            },
            "pg_response_time": {
              "$id": "#/properties/data/properties/order_data/properties/pg_response_time",
              "type": "string",
              "title": "The Pg_response_time Schema",
              "default": "",
              "examples": [
                "2018-09-02 22:26:05"
              ],
              "pattern": "^(.*)$"
            },
            "converted_to_cod": {
              "$id": "#/properties/data/properties/order_data/properties/converted_to_cod",
              "type": "boolean",
              "title": "The Converted_to_cod Schema",
              "default": false,
              "examples": [
                false
              ]
            },
            "last_failed_order_id": {
              "$id": "#/properties/data/properties/order_data/properties/last_failed_order_id",
              "type": "number",
              "title": "The Last_failed_order_id Schema",
              "default": 0,
              "examples": [
                0
              ]
            },
            "order_delivery_charge": {
              "$id": "#/properties/data/properties/order_data/properties/order_delivery_charge",
              "type": "number",
              "title": "The Order_delivery_charge Schema",
              "default": 0,
              "examples": [
                0
              ]
            },
            "convenience_fee": {
              "$id": "#/properties/data/properties/order_data/properties/convenience_fee",
              "type": "string",
              "title": "The Convenience_fee Schema",
              "default": "",
              "examples": [
                "0"
              ],
              "pattern": "^(.*)$"
            },
            "customer_user_agent": {
              "$id": "#/properties/data/properties/order_data/properties/customer_user_agent",
              "type": "string",
              "title": "The Customer_user_agent Schema",
              "default": "",
              "examples": [
                "effe3e52-6d90-4cb6-96a3-8b337cb4cb0c5e827259-b181-48f0-8a1c-e8943324cc1d"
              ],
              "pattern": "^(.*)$"
            },
            "overbooking": {
              "$id": "#/properties/data/properties/order_data/properties/overbooking",
              "type": "string",
              "title": "The Overbooking Schema",
              "default": "",
              "examples": [
                "0"
              ],
              "pattern": "^(.*)$"
            },
            "payment_confirmation_channel": {
              "$id": "#/properties/data/properties/order_data/properties/payment_confirmation_channel",
              "type": "string",
              "title": "The Payment_confirmation_channel Schema",
              "default": "",
              "examples": [
                "api"
              ],
              "pattern": "^(.*)$"
            },
            "billing_lat": {
              "$id": "#/properties/data/properties/order_data/properties/billing_lat",
              "type": "string",
              "title": "The Billing_lat Schema",
              "default": "",
              "examples": [
                "27.835629"
              ],
              "pattern": "^(.*)$"
            },
            "billing_lng": {
              "$id": "#/properties/data/properties/order_data/properties/billing_lng",
              "type": "string",
              "title": "The Billing_lng Schema",
              "default": "",
              "examples": [
                "76.173089"
              ],
              "pattern": "^(.*)$"
            },
            "payment_txn_id": {
              "$id": "#/properties/data/properties/order_data/properties/payment_txn_id",
              "type": "string",
              "title": "The Payment_txn_id Schema",
              "default": "",
              "examples": [
                ""
              ],
              "pattern": "^(.*)$"
            },
            "coupon_code": {
              "$id": "#/properties/data/properties/order_data/properties/coupon_code",
              "type": "string",
              "title": "The Coupon_code Schema",
              "default": "",
              "examples": [
                ""
              ],
              "pattern": "^(.*)$"
            },
            "with_de": {
              "$id": "#/properties/data/properties/order_data/properties/with_de",
              "type": "boolean",
              "title": "The With_de Schema",
              "default": false,
              "examples": [
                false
              ]
            },
            "restaurant_new_slug": {
              "$id": "#/properties/data/properties/order_data/properties/restaurant_new_slug",
              "type": "string",
              "title": "The Restaurant_new_slug Schema",
              "default": "",
              "examples": [
                "inresto_integration_rest-do_not_touch-koramagala-automation_qa_do_not_touch"
              ],
              "pattern": "^(.*)$"
            },
            "distance_calc_method": {
              "$id": "#/properties/data/properties/order_data/properties/distance_calc_method",
              "type": "string",
              "title": "The Distance_calc_method Schema",
              "default": "",
              "examples": [
                "GDMA_CACHE_LUCIFER"
              ],
              "pattern": "^(.*)$"
            },
            "is_partner_enable": {
              "$id": "#/properties/data/properties/order_data/properties/is_partner_enable",
              "type": "boolean",
              "title": "The Is_partner_enable Schema",
              "default": false,
              "examples": [
                true
              ]
            },
            "partner_id": {
              "$id": "#/properties/data/properties/order_data/properties/partner_id",
              "type": "string",
              "title": "The Partner_id Schema",
              "default": "",
              "examples": [
                "P3F4TUBSA"
              ],
              "pattern": "^(.*)$"
            },
            "type_of_partner": {
              "$id": "#/properties/data/properties/order_data/properties/type_of_partner",
              "type": "number",
              "title": "The Type_of_partner Schema",
              "default": 0,
              "examples": [
                22
              ]
            },
            "prep_time": {
              "$id": "#/properties/data/properties/order_data/properties/prep_time",
              "type": "string",
              "title": "The Prep_time Schema",
              "default": "",
              "examples": [
                "25"
              ],
              "pattern": "^(.*)$"
            },
            "restaurant_has_inventory": {
              "$id": "#/properties/data/properties/order_data/properties/restaurant_has_inventory",
              "type": "string",
              "title": "The Restaurant_has_inventory Schema",
              "default": "",
              "examples": [
                "0"
              ],
              "pattern": "^(.*)$"
            },
            "order_payment_method": {
              "$id": "#/properties/data/properties/order_data/properties/order_payment_method",
              "type": "string",
              "title": "The Order_payment_method Schema",
              "default": "",
              "examples": [
                "Mobikwik-SSO"
              ],
              "pattern": "^(.*)$"
            },
            "pay_by_system_value": {
              "$id": "#/properties/data/properties/order_data/properties/pay_by_system_value",
              "type": "boolean",
              "title": "The Pay_by_system_value Schema",
              "default": false,
              "examples": [
                false
              ]
            },
            "de_pickedup_refund": {
              "$id": "#/properties/data/properties/order_data/properties/de_pickedup_refund",
              "type": "number",
              "title": "The De_pickedup_refund Schema",
              "default": 0,
              "examples": [
                0
              ]
            },
            "agreement_type": {
              "$id": "#/properties/data/properties/order_data/properties/agreement_type",
              "type": "string",
              "title": "The Agreement_type Schema",
              "default": "",
              "examples": [
                "1"
              ],
              "pattern": "^(.*)$"
            },
            "is_ivr_enabled": {
              "$id": "#/properties/data/properties/order_data/properties/is_ivr_enabled",
              "type": "string",
              "title": "The Is_ivr_enabled Schema",
              "default": "",
              "examples": [
                "0"
              ],
              "pattern": "^(.*)$"
            },
            "is_refund_initiated": {
              "$id": "#/properties/data/properties/order_data/properties/is_refund_initiated",
              "type": "number",
              "title": "The Is_refund_initiated Schema",
              "default": 0,
              "examples": [
                0
              ]
            },
            "restaurant_cover_image": {
              "$id": "#/properties/data/properties/order_data/properties/restaurant_cover_image",
              "type": "string",
              "title": "The Restaurant_cover_image Schema",
              "default": "",
              "examples": [
                ""
              ],
              "pattern": "^(.*)$"
            },
            "restaurant_area_name": {
              "$id": "#/properties/data/properties/order_data/properties/restaurant_area_name",
              "type": "string",
              "title": "The Restaurant_area_name Schema",
              "default": "",
              "examples": [
                "VMS_Demo_Area"
              ],
              "pattern": "^(.*)$"
            },
            "cust_lat_lng": {
              "$id": "#/properties/data/properties/order_data/properties/cust_lat_lng",
              "type": "object",
              "title": "The Cust_lat_lng Schema",
              "required": [
                "lat",
                "lng"
              ],
              "properties": {
                "lat": {
                  "$id": "#/properties/data/properties/order_data/properties/cust_lat_lng/properties/lat",
                  "type": "string",
                  "title": "The Lat Schema",
                  "default": "",
                  "examples": [
                    "27.835629"
                  ],
                  "pattern": "^(.*)$"
                },
                "lng": {
                  "$id": "#/properties/data/properties/order_data/properties/cust_lat_lng/properties/lng",
                  "type": "string",
                  "title": "The Lng Schema",
                  "default": "",
                  "examples": [
                    "76.173089"
                  ],
                  "pattern": "^(.*)$"
                }
              }
            },
            "key": {
              "$id": "#/properties/data/properties/order_data/properties/key",
              "type": "string",
              "title": "The Key Schema",
              "default": "",
              "examples": [
                "B8BMV6"
              ],
              "pattern": "^(.*)$"
            },
            "is_assured": {
              "$id": "#/properties/data/properties/order_data/properties/is_assured",
              "type": "number",
              "title": "The Is_assured Schema",
              "default": 0,
              "examples": [
                0
              ]
            },
            "delayed_placing": {
              "$id": "#/properties/data/properties/order_data/properties/delayed_placing",
              "type": "number",
              "title": "The Delayed_placing Schema",
              "default": 0,
              "examples": [
                0
              ]
            },
            "on_time": {
              "$id": "#/properties/data/properties/order_data/properties/on_time",
              "type": "boolean",
              "title": "The On_time Schema",
              "default": false,
              "examples": [
                false
              ]
            },
            "sla_difference": {
              "$id": "#/properties/data/properties/order_data/properties/sla_difference",
              "type": "string",
              "title": "The Sla_difference Schema",
              "default": "",
              "examples": [
                "0"
              ],
              "pattern": "^(.*)$"
            },
            "actual_sla_time": {
              "$id": "#/properties/data/properties/order_data/properties/actual_sla_time",
              "type": "string",
              "title": "The Actual_sla_time Schema",
              "default": "",
              "examples": [
                "0"
              ],
              "pattern": "^(.*)$"
            },
            "payment_txn_status": {
              "$id": "#/properties/data/properties/order_data/properties/payment_txn_status",
              "type": "string",
              "title": "The Payment_txn_status Schema",
              "default": "",
              "examples": [
                "success"
              ],
              "pattern": "^(.*)$"
            },
            "restaurant_taxation_type": {
              "$id": "#/properties/data/properties/order_data/properties/restaurant_taxation_type",
              "type": "string",
              "title": "The Restaurant_taxation_type Schema",
              "default": "",
              "examples": [
                "GST"
              ],
              "pattern": "^(.*)$"
            },
            "rain_mode": {
              "$id": "#/properties/data/properties/order_data/properties/rain_mode",
              "type": "string",
              "title": "The Rain_mode Schema",
              "default": "",
              "examples": [
                "0"
              ],
              "pattern": "^(.*)$"
            },
            "payment": {
              "$id": "#/properties/data/properties/order_data/properties/payment",
              "type": "string",
              "title": "The Payment Schema",
              "default": "",
              "examples": [
                "successful"
              ],
              "pattern": "^(.*)$"
            },
            "device_id": {
              "$id": "#/properties/data/properties/order_data/properties/device_id",
              "type": "string",
              "title": "The Device_id Schema",
              "default": "",
              "examples": [
                "193892fb-04aa-4686-812b-9a1d2f5acd4a"
              ],
              "pattern": "^(.*)$"
            },
            "swuid": {
              "$id": "#/properties/data/properties/order_data/properties/swuid",
              "type": "string",
              "title": "The Swuid Schema",
              "default": "",
              "examples": [
                "193892fb-04aa-4686-812b-9a1d2f5acd4a"
              ],
              "pattern": "^(.*)$"
            },
            "tid": {
              "$id": "#/properties/data/properties/order_data/properties/tid",
              "type": "string",
              "title": "The Tid Schema",
              "default": "",
              "examples": [
                "04501d53-3dd5-40fd-9016-9b7dbd2d01f0"
              ],
              "pattern": "^(.*)$"
            },
            "sid": {
              "$id": "#/properties/data/properties/order_data/properties/sid",
              "type": "string",
              "title": "The Sid Schema",
              "default": "",
              "examples": [
                "bam1e266-f3dc-4525-9c46-b31e3af3d24b"
              ],
              "pattern": "^(.*)$"
            },
            "listing_version_shown": {
              "$id": "#/properties/data/properties/order_data/properties/listing_version_shown",
              "type": "string",
              "title": "The Listing_version_shown Schema",
              "default": "",
              "examples": [
                ""
              ],
              "pattern": "^(.*)$"
            },
            "menu_shown": {
              "$id": "#/properties/data/properties/order_data/properties/menu_shown",
              "type": "object",
              "title": "The Menu_shown Schema"
            },
            "is_replicated": {
              "$id": "#/properties/data/properties/order_data/properties/is_replicated",
              "type": "boolean",
              "title": "The Is_replicated Schema",
              "default": false,
              "examples": [
                false
              ]
            },
            "is_cancellable": {
              "$id": "#/properties/data/properties/order_data/properties/is_cancellable",
              "type": "boolean",
              "title": "The Is_cancellable Schema",
              "default": false,
              "examples": [
                false
              ]
            },
            "cancellation_fee_collected": {
              "$id": "#/properties/data/properties/order_data/properties/cancellation_fee_collected",
              "type": "number",
              "title": "The Cancellation_fee_collected Schema",
              "default": 0,
              "examples": [
                0
              ]
            },
            "cancellation_fee_applied": {
              "$id": "#/properties/data/properties/order_data/properties/cancellation_fee_applied",
              "type": "number",
              "title": "The Cancellation_fee_applied Schema",
              "default": 0,
              "examples": [
                0
              ]
            },
            "cancellation_fee_collected_total": {
              "$id": "#/properties/data/properties/order_data/properties/cancellation_fee_collected_total",
              "type": "number",
              "title": "The Cancellation_fee_collected_total Schema",
              "default": 0,
              "examples": [
                0
              ]
            },
            "commission_on_full_bill": {
              "$id": "#/properties/data/properties/order_data/properties/commission_on_full_bill",
              "type": "boolean",
              "title": "The Commission_on_full_bill Schema",
              "default": false,
              "examples": [
                true
              ]
            },
            "is_select": {
              "$id": "#/properties/data/properties/order_data/properties/is_select",
              "type": "boolean",
              "title": "The Is_select Schema",
              "default": false,
              "examples": [
                false
              ]
            },
            "is_first_order_delivered": {
              "$id": "#/properties/data/properties/order_data/properties/is_first_order_delivered",
              "type": "boolean",
              "title": "The Is_first_order_delivered Schema",
              "default": false,
              "examples": [
                true
              ]
            },
            "first_order": {
              "$id": "#/properties/data/properties/order_data/properties/first_order",
              "type": "boolean",
              "title": "The First_order Schema",
              "default": false,
              "examples": [
                false
              ]
            },
            "rendering_details": {
              "$id": "#/properties/data/properties/order_data/properties/rendering_details",
              "type": "array",
              "title": "The Rendering_details Schema",
              "items": {
                "$id": "#/properties/data/properties/order_data/properties/rendering_details/items",
                "type": "object",
                "title": "The Items Schema",
                "required": [
                  "type",
                  "key",
                  "intermediateText",
                  "value",
                  "hierarchy",
                  "currency",
                  "display_text",
                  "info_text",
                  "icon"
                ],
                "properties": {
                  "type": {
                    "$id": "#/properties/data/properties/order_data/properties/rendering_details/items/properties/type",
                    "type": "string",
                    "title": "The Type Schema",
                    "default": "",
                    "examples": [
                      "display"
                    ],
                    "pattern": "^(.*)$"
                  },
                  "key": {
                    "$id": "#/properties/data/properties/order_data/properties/rendering_details/items/properties/key",
                    "type": "string",
                    "title": "The Key Schema",
                    "default": "",
                    "examples": [
                      "item_total"
                    ],
                    "pattern": "^(.*)$"
                  },
                  "intermediateText": {
                    "$id": "#/properties/data/properties/order_data/properties/rendering_details/items/properties/intermediateText",
                    "type": "string",
                    "title": "The Intermediatetext Schema",
                    "default": "",
                    "examples": [
                      ""
                    ],
                    "pattern": "^(.*)$"
                  },
                  "value": {
                    "$id": "#/properties/data/properties/order_data/properties/rendering_details/items/properties/value",
                    "type": "string",
                    "title": "The Value Schema",
                    "default": "",
                    "examples": [
                      "1.00"
                    ],
                    "pattern": "^(.*)$"
                  },
                  "hierarchy": {
                    "$id": "#/properties/data/properties/order_data/properties/rendering_details/items/properties/hierarchy",
                    "type": "number",
                    "title": "The Hierarchy Schema",
                    "default": 0,
                    "examples": [
                      1
                    ]
                  },
                  "currency": {
                    "$id": "#/properties/data/properties/order_data/properties/rendering_details/items/properties/currency",
                    "type": "string",
                    "title": "The Currency Schema",
                    "default": "",
                    "examples": [
                      "rupees"
                    ],
                    "pattern": "^(.*)$"
                  },
                  "display_text": {
                    "$id": "#/properties/data/properties/order_data/properties/rendering_details/items/properties/display_text",
                    "type": "string",
                    "title": "The Display_text Schema",
                    "default": "",
                    "examples": [
                      "Item Total"
                    ],
                    "pattern": "^(.*)$"
                  },
                  "info_text": {
                    "$id": "#/properties/data/properties/order_data/properties/rendering_details/items/properties/info_text",
                    "type": "string",
                    "title": "The Info_text Schema",
                    "default": "",
                    "examples": [
                      ""
                    ],
                    "pattern": "^(.*)$"
                  },
                  "icon": {
                    "$id": "#/properties/data/properties/order_data/properties/rendering_details/items/properties/icon",
                    "type": "string",
                    "title": "The Icon Schema",
                    "default": "",
                    "examples": [
                      ""
                    ],
                    "pattern": "^(.*)$"
                  }
                }
              }
            },
            "mCancellationTime": {
              "$id": "#/properties/data/properties/order_data/properties/mCancellationTime",
              "type": "number",
              "title": "The Mcancellationtime Schema",
              "default": 0,
              "examples": [
                0
              ]
            },
            "configurations": {
              "$id": "#/properties/data/properties/order_data/properties/configurations",
              "type": "object",
              "title": "The Configurations Schema"
            },
            "GST_on_subscription": {
              "$id": "#/properties/data/properties/order_data/properties/GST_on_subscription",
              "type": "object",
              "title": "The Gst_on_subscription Schema"
            },
            "subscription_gst_expression": {
              "$id": "#/properties/data/properties/order_data/properties/subscription_gst_expression",
              "type": "string",
              "title": "The Subscription_gst_expression Schema",
              "default": "",
              "examples": [
                "18"
              ],
              "pattern": "^(.*)$"
            },
            "success_message": {
              "$id": "#/properties/data/properties/order_data/properties/success_message",
              "type": "string",
              "title": "The Success_message Schema",
              "default": "",
              "examples": [
                "Your order will be delivered shortly. Keep Swiggying!"
              ],
              "pattern": "^(.*)$"
            },
            "success_message_info": {
              "$id": "#/properties/data/properties/order_data/properties/success_message_info",
              "type": "string",
              "title": "The Success_message_info Schema",
              "default": "",
              "examples": [
                ""
              ],
              "pattern": "^(.*)$"
            },
            "success_title": {
              "$id": "#/properties/data/properties/order_data/properties/success_title",
              "type": "string",
              "title": "The Success_title Schema",
              "default": "",
              "examples": [
                "Yay! Order Received"
              ],
              "pattern": "^(.*)$"
            },
            "success_message_type": {
              "$id": "#/properties/data/properties/order_data/properties/success_message_type",
              "type": "string",
              "title": "The Success_message_type Schema",
              "default": "",
              "examples": [
                "REGULAR"
              ],
              "pattern": "^(.*)$"
            },
            "threshold_fee": {
              "$id": "#/properties/data/properties/order_data/properties/threshold_fee",
              "type": "number",
              "title": "The Threshold_fee Schema",
              "default": 0,
              "examples": [
                0
              ]
            },
            "distance_fee": {
              "$id": "#/properties/data/properties/order_data/properties/distance_fee",
              "type": "number",
              "title": "The Distance_fee Schema",
              "default": 0,
              "examples": [
                0
              ]
            },
            "time_fee": {
              "$id": "#/properties/data/properties/order_data/properties/time_fee",
              "type": "number",
              "title": "The Time_fee Schema",
              "default": 0,
              "examples": [
                0
              ]
            },
            "special_fee": {
              "$id": "#/properties/data/properties/order_data/properties/special_fee",
              "type": "number",
              "title": "The Special_fee Schema",
              "default": 0,
              "examples": [
                0
              ]
            },
            "order_tags": {
              "$id": "#/properties/data/properties/order_data/properties/order_tags",
              "type": "array",
              "title": "The Order_tags Schema"
            }
          }
        },
        "invalid_coupon_response": {
          "$id": "#/properties/data/properties/invalid_coupon_response",
          "type": "null",
          "title": "The Invalid_coupon_response Schema",
          "default": null,
          "examples": [
            null
          ]
        },
        "inventory_messages": {
          "$id": "#/properties/data/properties/inventory_messages",
          "type": "null",
          "title": "The Inventory_messages Schema",
          "default": null,
          "examples": [
            null
          ]
        }
      }
    },
    "tid": {
      "$id": "#/properties/tid",
      "type": "string",
      "title": "The Tid Schema",
      "default": "",
      "examples": [
        "04501d53-3dd5-40fd-9016-9b7dbd2d01f0"
      ],
      "pattern": "^(.*)$"
    },
    "sid": {
      "$id": "#/properties/sid",
      "type": "string",
      "title": "The Sid Schema",
      "default": "",
      "examples": [
        "bam1e266-f3dc-4525-9c46-b31e3af3d24b"
      ],
      "pattern": "^(.*)$"
    },
    "deviceId": {
      "$id": "#/properties/deviceId",
      "type": "string",
      "title": "The Deviceid Schema",
      "default": "",
      "examples": [
        "193892fb-04aa-4686-812b-9a1d2f5acd4a"
      ],
      "pattern": "^(.*)$"
    },
    "successful": {
      "$id": "#/properties/successful",
      "type": "boolean",
      "title": "The Successful Schema",
      "default": false,
      "examples": [
        true
      ]
    }
  }
}