{
  "$id": "http://example.com/example.json",
  "type": "object",
  "properties": {
    "message": {
      "$id": "/properties/message",
      "type": "string",
      "title": "The Message Schema ",
      "default": "",
      "examples": [
        "Success"
      ]
    },
    "code": {
      "$id": "/properties/code",
      "type": "integer",
      "title": "The Code Schema ",
      "default": 0,
      "examples": [
        1
      ]
    },
    "data": {
      "$id": "/properties/data",
      "type": "array",
      "items": {
        "$id": "/properties/data/items",
        "type": "object",
        "properties": {
          "id": {
            "$id": "/properties/data/items/properties/id",
            "type": "integer",
            "title": "The Id Schema ",
            "default": 0,
            "examples": [
              3
            ]
          },
          "name": {
            "$id": "/properties/data/items/properties/name",
            "type": "string",
            "title": "The Name Schema ",
            "default": "",
            "examples": [
              "GP"
            ]
          }
        },
        "required": [
          "id",
          "name"
        ]
      }
    }
  },
  "required": [
    "message",
    "code",
    "data"
  ]
}