{
  "$id": "http://example.com/example.json",
  "type": "object",
  "properties": {
    "message": {
      "$id": "/properties/message",
      "type": "string",
      "title": "The Message Schema ",
      "default": "",
      "examples": [
        "Success"
      ]
    },
    "code": {
      "$id": "/properties/code",
      "type": "integer",
      "title": "The Code Schema ",
      "default": 0,
      "examples": [
        1
      ]
    },
    "data": {
      "$id": "/properties/data",
      "type": "array",
      "items": {
        "$id": "/properties/data/items",
        "type": "object",
        "properties": {
          "id": {
            "$id": "/properties/data/items/properties/id",
            "type": "integer",
            "title": "The Id Schema ",
            "default": 0,
            "examples": [
              1
            ]
          },
          "store_id": {
            "$id": "/properties/data/items/properties/store_id",
            "type": "integer",
            "title": "The Store_id Schema ",
            "default": 0,
            "examples": [
              1
            ]
          },
          "day_id": {
            "$id": "/properties/data/items/properties/day_id",
            "type": "integer",
            "title": "The Day_id Schema ",
            "default": 0,
            "examples": [
              1
            ]
          },
          "open_time": {
            "$id": "/properties/data/items/properties/open_time",
            "type": "string",
            "title": "The Open_time Schema ",
            "default": "",
            "examples": [
              "17:55:35"
            ]
          },
          "close_time": {
            "$id": "/properties/data/items/properties/close_time",
            "type": "string",
            "title": "The Close_time Schema ",
            "default": "",
            "examples": [
              "22:00:00"
            ]
          },
          "open_24_hours": {
            "$id": "/properties/data/items/properties/open_24_hours",
            "type": "integer",
            "title": "The Open_24_hours Schema ",
            "default": 0,
            "examples": [
              1
            ]
          }
        },
        "required": [
          "id",
          "store_id",
          "day_id",
          "open_time",
          "close_time",
          "open_24_hours"
        ]
      }
    }
  },
  "required": [
    "message",
    "code",
    "data"
  ]
}